Place,Name,CyrillicName,Country,BirthDate,WeightClassKg,BodyweightKg,Squat1Kg,Squat2Kg,Squat3Kg,Squat4Kg,Bench1Kg,Bench2Kg,Bench3Kg,Bench4Kg,Deadlift1Kg,Deadlift2Kg,Deadlift3Kg,Deadlift4Kg,TotalKg,Division,Sex,Event,Equipment,Tested,Best3SquatKg,Best3BenchKg,Best3DeadliftKg,BirthYear
1,Nikita Naumovich,Нікіта Наумович,Ukraine,2005-07-22,56,52.8,112.5,120,125,,55,60,-62.5,,115,122.5,130,,315,Teen 13-15,M,SBD,Wraps,Yes,125,60,130,2005
1,Vitaliy Melnichenko,Віталій Мельніченко,Ukraine,2003-09-12,67.5,67.25,-110,110,-120,,80,85,90,,150,160,170,,370,Teen 16-17,M,SBD,Wraps,Yes,110,90,170,2003
1,Mikita Ivchenko,Микита Івченко,Ukraine,2004-03-25,75,73.7,165,180,190,,-95,95,102.5,,140,155,165,,457.5,Teen 16-17,M,SBD,Wraps,Yes,190,102.5,165,2004
2,Anton Okolets,Антон Околець,Ukraine,2003-10-31,75,70.3,140,-155,-160,,95,102.5,110,,140,155,165,,415,Teen 16-17,M,SBD,Wraps,Yes,140,110,165,2003
1,Yaroslav Gavyada,Ярослав Гав'яда,Ukraine,2003-02-18,110,106.5,200,-210,220,,120,125,,,235,-245,245,,590,Teen 16-17,M,SBD,Wraps,Yes,220,125,245,2003
2,Daniil Kovalenko #3,Данііл Коваленко,Ukraine,2003-09-06,110,102.3,170,-200,-200,,125,-132.5,-132.5,,210,230,-250,,525,Teen 16-17,M,SBD,Wraps,Yes,170,125,230,2003
1,Vladislav Kostyukov,Владислав Костюков,Ukraine,2002-09-24,125,112.5,-180,-180,180,,100,105,107.5,,170,190,200,,487.5,Teen 16-17,M,SBD,Wraps,Yes,180,107.5,200,2002
1,Andriy Raychuk,Андрій Райчук,Ukraine,2001-03-03,75,72.4,180,190,195,,115,125,-127.5,,200,220,-227.5,,540,Teen 18-19,M,SBD,Wraps,Yes,195,125,220,2001
1,Yaroslav Slutskiy,Ярослав Слуцький,Ukraine,2001-01-24,82.5,79.85,150,-160,170,,110,-115,-120,,180,190,-200,,470,Teen 18-19,M,SBD,Wraps,Yes,170,110,190,2001
1,Andriy Chernakov,Андрій Чернаков,Ukraine,2000-07-20,82.5,81.65,-140,145,-150,,75,-80,-80,,190,200,-205,,420,Juniors 20-23,M,SBD,Wraps,Yes,145,75,200,2000
DQ,Vasil Zvizdaryuk,Василь Звіздарюк,Ukraine,2000-01-27,90,87.9,220,230,240,,140,-147.5,-147.5,,-250,-250,-250,,,Juniors 20-23,M,SBD,Wraps,Yes,240,140,,2000
1,Grigoriy Omelyanenko,Григорій Омельяненко,Ukraine,1994-06-11,67.5,65.65,135,142.5,-147.5,,105,-110,-110,,180,-195,195,,442.5,Open,M,SBD,Wraps,Yes,142.5,105,195,1994
2,Denis Rabin,Денис Рабін,Ukraine,1989-09-14,67.5,64.9,150,-160,-165,,110,-120,-120,,160,175,-190,,435,Open,M,SBD,Wraps,Yes,150,110,175,1989
1,Valentin Gontar,Валентин Гонтар,Ukraine,1987-09-26,75,75,230,-240,240,,140,-145,-145,,250,-260,260,,640,Open,M,SBD,Wraps,Yes,240,140,260,1987
2,Sergiy Sakhno,Сергій Сахно,Ukraine,1994-02-05,75,71.7,155,-165,-165,,105,-110,-110,,185,200,210,,470,Open,M,SBD,Wraps,Yes,155,105,210,1994
3,Kostyantin Akhremenko,Костянтин Ахременко,Ukraine,1995-08-04,75,68.8,140,155,-170,,100,110,-115,,170,182.5,190,,455,Open,M,SBD,Wraps,Yes,155,110,190,1995
1,Egor Stadnik,Єгор Стадник,Ukraine,1989-12-16,82.5,82.35,180,190,200,,110,-120,-120,,170,-182.5,-182.5,,480,Open,M,SBD,Wraps,Yes,200,110,170,1989
2,Oleksandr Pilipenko,Олександр Пилипенко,Ukraine,1994-04-17,82.5,81.75,155,167.5,180,,90,102.5,-107.5,,165,180,-190,,462.5,Open,M,SBD,Wraps,Yes,180,102.5,180,1994
1,Sergiy Kravchenko,Сергій Кравченко,Ukraine,1995-01-20,90,88.75,180,200,205,,-95,100,105,,170,180,-190,,490,Open,M,SBD,Wraps,Yes,205,105,180,1995
2,Sergiy Ulyanenko,Сергій Ульяненко,Ukraine,1995-06-26,90,86.85,140,160,-180,,112.5,120,122.5,,162.5,180,-200,,462.5,Open,M,SBD,Wraps,Yes,160,122.5,180,1995
1,Oleksandr Oliynik,Олександр Олійник,Ukraine,1983-11-17,100,98.85,220,-240,250,,135,145,-150,,220,235,-250,,630,Open,M,SBD,Wraps,Yes,250,145,235,1983
2,Volodimir Plyuta,Володимир Плюта,Ukraine,1992-03-01,100,93.8,210,225,-235,,110,125,-130,,210,230,245,,595,Open,M,SBD,Wraps,Yes,225,125,245,1992
3,Oleksiy Zhadko,Олексій Жадько,Ukraine,1991-03-30,100,95.7,180,190,195,,120,125,130,,210,220,230,,555,Open,M,SBD,Wraps,Yes,195,130,230,1991
1,Sergiy Pashko,Сергій Пашко,Ukraine,1973-04-06,100,97.05,-200,-200,200,,130,137.5,-142.5,,200,215,222.5,,560,Masters 40-49,M,SBD,Wraps,Yes,200,137.5,222.5,1973
2,Sergiy Danilenko,Сергій Даниленко,Ukraine,1977-10-23,100,99.1,150,165,-175,,140,-150,-150,,220,235,-247.5,,540,Masters 40-49,M,SBD,Wraps,Yes,165,140,235,1977
1,Sergiy Punda,Сергій Пунда,Ukraine,1974-10-25,125,117.75,190,210,220,,140,150,160,,190,210,220,,600,Masters 40-49,M,SBD,Wraps,Yes,220,160,220,1974
1,Viktor Poshtarenko,Віктор Поштаренко,Ukraine,1970-02-06,90,88.95,200,210,215,,130,-140,-140,,210,225,-237.5,,570,Masters 50-59,M,SBD,Wraps,Yes,215,130,225,1970
1,Andriy Gerbut,Андрій Гербут,Ukraine,1964-03-21,100,95.65,-120,120,-150,,100,110,-115,,160,170,-185,,400,Masters 50-59,M,SBD,Wraps,Yes,120,110,170,1964
1,Oleksandr Ostrovskiy,Олександр Островський,Ukraine,1953-02-10,75,74.1,130,-140,140,,70,-80,,,150,160,,,370,Masters 60-69,M,SBD,Wraps,Yes,140,70,160,1953
1,Yuriy Starkov,Юрій Старков,Ukraine,1947-09-01,90,84.2,140,-150,-150,,100,105,110,,200,210,220,,470,Masters 70-79,M,SBD,Wraps,Yes,140,110,220,1947
2,Vasil Turbal,Василь Турбал,Ukraine,1948-07-16,90,83.3,80,90,100,,85,90,-95,,100,120,140,,330,Masters 70-79,M,SBD,Wraps,Yes,100,90,140,1948
1,Evgeniya Bishovets,Євгенія Бишовець,Ukraine,2003-01-21,67.5,65.1,75,80,85,,40,-42.5,42.5,,82.5,87.5,-92.5,,215,Teen 16-17,F,SBD,Wraps,Yes,85,42.5,87.5,2003
1,Anastasiya Alekseenko,Анастасія Алєксєєнко,Ukraine,1999-01-05,60,59.02,80,85,-87.5,,52.5,55,57.5,,85,92.5,97.5,,240,Juniors 20-23,F,SBD,Wraps,Yes,85,57.5,97.5,1999
1,Tetyana Vladimirenko,Тетяна Владимиренко,Ukraine,1999-05-18,67.5,60.9,-120,120,127.5,,65,-70,-70,,112.5,120,-127.5,,312.5,Juniors 20-23,F,SBD,Wraps,Yes,127.5,65,120,1999
1,Yuliya Ponomarenko,Юлія Пономаренко,Ukraine,1987-10-18,48,46.5,75,80,85,,45,47.7,50,,110,115,120,,255,Open,F,SBD,Wraps,Yes,85,50,120,1987
1,Yuliya Pshezemirska,Юлія Пшеземирська,Ukraine,1982-11-30,52,51.5,-100,100,-110,,45,47.5,-50,,100,-105,-105,,247.5,Open,F,SBD,Wraps,Yes,100,47.5,100,1982
1,Oksana Osmakova,Оксана Осмакова,Ukraine,1983-02-10,56,52.84,80,85,90,,47.5,50,52.5,,110,115,117.5,,260,Open,F,SBD,Wraps,Yes,90,52.5,117.5,1983
2,Olga Dimkova,Ольга Димкова,Ukraine,1987-08-27,56,52.8,75,82.5,-90,,45,50,-52.5,,117.5,125,-127.5,,257.5,Open,F,SBD,Wraps,Yes,82.5,50,125,1987
3,Irina Slastna,Ірина Сластна,Ukraine,1986-09-08,56,54.82,-90,-90,90,,40,47.5,-55,,75,90,100,,237.5,Open,F,SBD,Wraps,Yes,90,47.5,100,1986
1,Nataliya Sokurenko,Наталія Сокуренко,Ukraine,1981-01-12,60,59.54,140,150,155,,70,75,-80,,130,140,-145,,370,Open,F,SBD,Wraps,Yes,155,75,140,1981
2,Lyudmila Grishchenko,Людмила Грищенко,Ukraine,1984-10-20,60,59.8,105,115,120,,52.5,57.5,-62.5,,120,130,140,,317.5,Open,F,SBD,Wraps,Yes,120,57.5,140,1984
1,Oksana Ostroushko,Оксана Остроушко,Ukraine,1983-04-26,67.5,62,115,125,-130,,70,-75,75,,130,140,147.5,,347.5,Open,F,SBD,Wraps,Yes,125,75,147.5,1983
2,Anna Vakarenko,Анна Вакаренко,Ukraine,1990-07-11,67.5,65.6,100,115,-125,,50,57.5,60,,120,130,-140,,305,Open,F,SBD,Wraps,Yes,115,60,130,1990
3,Katerina Filipova,Катерина Філіпова,Ukraine,1982-06-25,67.5,66.5,100,115,120,,55,60,-65,,100,120,,,300,Open,F,SBD,Wraps,Yes,120,60,120,1982
1,Vita Rudakova,Віта Рудакова,Ukraine,1980-02-03,75,73.4,115,-122.5,-122.5,,-55,57.5,60,,150,-162.5,-162.5,,325,Open,F,SBD,Wraps,Yes,115,60,150,1980
1,Vita Rudakova,Віта Рудакова,Ukraine,1980-02-03,75,73.4,115,-122.5,-122.5,,-55,57.5,60,,150,-162.5,-162.5,,325,Masters 40-49,F,SBD,Wraps,Yes,115,60,150,1980
1,Yuriy Kostenko,Юрій Костенко,Ukraine,1971-07-28,100,93.8,240,255,-275,,160,165,,,250,262.5,-275,,682.5,Open,M,SBD,Wraps,No,255,165,262.5,1971
1,Oleksandr Tarasov,Олександр Тарасов,Ukraine,1991-10-27,125,123.7,260,-280,280,,215,225,,,-320,320,335,,840,Open,M,SBD,Wraps,No,280,225,335,1991
1,Yuriy Kostenko,Юрій Костенко,Ukraine,1971-07-28,100,93.8,240,255,-275,,160,165,,,250,262.5,-275,,682.5,Masters 40-49,M,SBD,Wraps,No,255,165,262.5,1971
3,Oleg Lungu,Олег Лунгу,Ukraine,1972-11-17,100,92.1,-240,250,-260,,120,125,130,,220,235,-240,,615,Masters 40-49,M,SBD,Wraps,No,250,130,235,1972
1,Yuliya Kolyagina,Юлія Колягіна,Ukraine,1999-08-07,60,59.38,107.5,115,120,,62.5,67.5,-70,,132.5,140,145,,332.5,Juniors 20-23,F,SBD,Wraps,No,120,67.5,145,1999
DQ,Andriy Vashchuk,Андрій Ващук,Ukraine,2002-12-11,90,82.8,-160,-160,160,,-115,-115,-115,,-190,,,,,Teen 16-17,M,SBD,Wraps,Yes,160,,,2002
NS,Sergiy Risenko,Сергій Рисенко,Ukraine,1987-09-16,,,,,,,,,,,,,,,,Open,M,SBD,Wraps,Yes,,,,1987
1,Oleksiy Lisenko,Олексій Лисенко,Ukraine,1973-06-03,90,89.85,150,160,170,,110,120,-125,,180,200,-210,,490,Masters 40-49,M,SBD,Wraps,Yes,170,120,200,1973
1,Tetyana Korostel,Тетяна Коростель,Ukraine,2007-01-07,48,45.8,30,40,50,,27.5,35,37.5,,60,70,82.5,,170,Teen 13-15,F,SBD,Wraps,Yes,50,37.5,82.5,2007
1,Liliya Timofiїva,Лілія Тимофіїва,Ukraine,1999-09-27,67.5,65.95,85,92.5,-100,,45,50,-55,,105,115,122.5,,265,Juniors 20-23,F,SBD,Wraps,Yes,92.5,50,122.5,1999
1,Olena Valegova,Олена Валегова,Ukraine,1987-05-01,52,50.6,-92.5,92.5,97.5,,55,57.5,-60,,140,-145,,,295,Open,F,SBD,Wraps,Yes,97.5,57.5,140,1987
1,Anastasiya Berestyana,Анастасія Берестяна,Ukraine,1984-07-14,60,58.9,60,-70,70,,75,80,85,,80,90,95,,250,Open,F,SBD,Wraps,Yes,70,85,95,1984
1,Evgeniy Kamenev,Євгеній Каменев,Ukraine,1992-06-08,67.5,61.2,,,,,85,90,-92.5,,160,-180,-180,,250,Open,M,BD,Raw,Yes,,90,160,1992
1,Valentin Gontar,Валентин Гонтар,Ukraine,1987-09-26,75,75,,,,,140,-145,-145,,250,-260,260,,400,Open,M,BD,Raw,Yes,,140,260,1987
2,Evgen Kosik,Євген Косик,Ukraine,1995-01-24,75,74.15,,,,,125,130,-135,,202.5,210,-215,,340,Open,M,BD,Raw,Yes,,130,210,1995
1,Oleksandr Pilipenko,Олександр Пилипенко,Ukraine,1994-04-17,82.5,81.75,,,,,90,102.5,-107.5,,165,180,-190,,282.5,Open,M,BD,Raw,Yes,,102.5,180,1994
1,Volodimir Plyuta,Володимир Плюта,Ukraine,1992-03-01,100,93.8,,,,,110,125,-130,,210,230,245,,370,Open,M,BD,Raw,Yes,,125,245,1992
2,Dmitro Beresten,Дмитро Берестень,Ukraine,1987-08-23,100,94.8,,,,,135,142.5,-145,,190,202.5,-205,,345,Open,M,BD,Raw,Yes,,142.5,202.5,1987
DD,Roman Aleksandrov,Роман Александров,Ukraine,1993-12-15,100,96.55,,,,,-170,-170,170,,265,275,-280,,,Open,M,BD,Raw,Yes,,170,275,1993
1,Roman Radchuk,Роман Радчук,Ukraine,1989-08-30,125,113.3,,,,,140,150,-160,,200,240,,,390,Open,M,BD,Raw,Yes,,150,240,1989
1,Sergiy Danilenko,Сергій Даниленко,Ukraine,1977-10-23,100,99.1,,,,,140,-150,-150,,220,235,-247.5,,375,Masters 40-49,M,BD,Raw,Yes,,140,235,1977
1,Viktor Poshtarenko,Віктор Поштаренко,Ukraine,1970-02-06,90,88.95,,,,,130,-140,-140,,210,225,-237.5,,355,Masters 50-59,M,BD,Raw,Yes,,130,225,1970
1,Oleksandr Ostrovskiy,Олександр Островський,Ukraine,1953-02-10,75,74.1,,,,,70,-80,,,150,160,,,230,Masters 60-69,M,BD,Raw,Yes,,70,160,1953
1,Yuriy Starkov,Юрій Старков,Ukraine,1947-09-01,90,84.2,,,,,100,105,110,,200,210,220,,330,Masters 70-79,M,BD,Raw,Yes,,110,220,1947
1,Mariya Ivashkina,Марія Івашкіна,Ukraine,1997-09-17,52,49.1,,,,,-57.5,-57.5,57.5,,-100,100,102.5,,160,Juniors 20-23,F,BD,Raw,Yes,,57.5,102.5,1997
1,Tetyana Oliynik,Тетяна Олійник,Ukraine,1994-07-31,52,48.5,,,,,52.5,57.5,-60,,-112.5,112.5,-117.5,,170,Open,F,BD,Raw,Yes,,57.5,112.5,1994
1,Valeriya Boyko,Валерія Бойко,Ukraine,1993-10-19,56,53.84,,,,,67.5,72.5,77.5,,100,-110,-110,,177.5,Open,F,BD,Raw,Yes,,77.5,100,1993
1,Tetyana Dzherelyuk,Тетяна Джерелюк,Ukraine,1983-07-08,67.5,61.55,,,,,60,-65,-65,,130,147.5,-150,,207.5,Open,F,BD,Raw,Yes,,60,147.5,1983
2,Katerina Filipova,Катерина Філіпова,Ukraine,1982-06-25,67.5,66.5,,,,,55,60,-65,,100,120,,,180,Open,F,BD,Raw,Yes,,60,120,1982
1,Irina Kairova,Ірина Каірова,Ukraine,1982-12-10,75,73.35,,,,,47.5,50,52.5,,95,102.5,105,,157.5,Open,F,BD,Raw,Yes,,52.5,105,1982
1,Eduard Gusev,Едуард Гусєв,Ukraine,1990-07-27,110,110,,,,,150,-160,160,,220,240,255,,415,Open,M,BD,Raw,No,,160,255,1990
1,Oleksandr Tarasov,Олександр Тарасов,Ukraine,1991-10-27,125,123.7,,,,,215,225,,,-320,320,335,,560,Open,M,BD,Raw,No,,225,335,1991
1,Dmitro Kravchinskiy,Дмитро Кравчинський,Ukraine,1982-05-19,140,129,,,,,205,210,217.5,,325,-335.5,,,542.5,Open,M,BD,Raw,No,,217.5,325,1982
1,Bogdan Muzichenko,Богдан Музиченко,Ukraine,2008-07-30,48,46.7,60,70,-75,,,,,,,,,,70,Youth,M,S,Wraps,Yes,70,,,2008
1,Denis Rabin,Денис Рабін,Ukraine,1989-09-14,67.5,64.9,150,-160,-165,,,,,,,,,,150,Open,M,S,Wraps,Yes,150,,,1989
1,Dmytro Solovyov,Дмитро Соловйов,Ukraine,1983-10-17,82.5,80.2,190,200,210,,,,,,,,,,210,Open,M,S,Wraps,Yes,210,,,1983
2,Egor Stadnik,Єгор Стадник,Ukraine,1989-12-16,82.5,82.35,180,190,200,,,,,,,,,,200,Open,M,S,Wraps,Yes,200,,,1989
1,Vasil Zvizdaryuk,Василь Звіздарюк,Ukraine,2000-01-27,90,87.9,220,230,240,,,,,,,,,,240,Open,M,S,Wraps,Yes,240,,,2000
1,Andriy Gerbut,Андрій Гербут,Ukraine,1964-03-21,100,95.65,-120,120,-150,,,,,,,,,,120,Masters 50-59,M,S,Wraps,Yes,120,,,1964
1,Irina Slastna,Ірина Сластна,Ukraine,1986-09-08,56,54.82,-90,-90,90,,,,,,,,,,90,Open,F,S,Wraps,Yes,90,,,1986
1,Katerina Filipova,Катерина Філіпова,Ukraine,1982-06-25,67.5,66.5,100,115,120,,,,,,,,,,120,Open,F,S,Wraps,Yes,120,,,1982
2,Anna Vakarenko,Анна Вакаренко,Ukraine,1990-07-11,67.5,65.6,100,115,-125,,,,,,,,,,115,Open,F,S,Wraps,Yes,115,,,1990
1,Oleg Lungu,Олег Лунгу,Ukraine,1972-11-17,100,92.1,-240,250,-260,,,,,,,,,,250,Masters 40-49,M,S,Wraps,No,250,,,1972
1,Olena Valegova,Олена Валегова,Ukraine,1987-05-01,52,50.6,-92.5,92.5,97.5,,,,,,,,,,97.5,Open,F,S,Wraps,Yes,97.5,,,1987
1,Vadim Zrazhevets,Вадим Зражевець,Ukraine,2006-06-26,75,74.35,,,,,50,-60,-60,,,,,,50,Teen 13-15,M,B,Raw,Yes,,50,,2006
1,Gordiy Kozhukhar,Гордій Кожухар,Ukraine,2004-12-21,110,107.5,,,,,102.5,-107.5,-107.5,,,,,,102.5,Teen 13-15,M,B,Raw,Yes,,102.5,,2004
1,Kiril Zhuravlov,Кирил Журавльов,Ukraine,2003-05-28,67.5,62.8,,,,,95,102.5,107.5,,,,,,107.5,Teen 16-17,M,B,Raw,Yes,,107.5,,2003
2,Vitaliy Melnichenko,Віталій Мельніченко,Ukraine,2003-09-12,67.5,67.25,,,,,80,85,90,,,,,,90,Teen 16-17,M,B,Raw,Yes,,90,,2003
1,Yaroslav Gavyada,Ярослав Гав'яда,Ukraine,2003-02-18,110,106.5,,,,,120,125,,,,,,,125,Teen 16-17,M,B,Raw,Yes,,125,,2003
1,Artem Martinchuk,Артем Мартинчук,Ukraine,2001-05-28,82.5,80.3,,,,,-145,145,-155,,,,,,145,Teen 18-19,M,B,Raw,Yes,,145,,2001
1,Evgeniy Boloban,Євгеній Болобан,Ukraine,1996-08-28,82.5,76.6,,,,,160,170,-175,,,,,,170,Juniors 20-23,M,B,Raw,Yes,,170,,1996
2,Artem Chernyavka,Артем Чернявка,Ukraine,1997-08-12,82.5,82.25,,,,,115,-127.5,-127.5,,,,,,115,Juniors 20-23,M,B,Raw,Yes,,115,,1997
DQ,Oleksandr Barvinskiy,Олександр Барвінський,Ukraine,1999-09-10,82.5,81.65,,,,,-135,-140,-140,,,,,,,Juniors 20-23,M,B,Raw,Yes,,,,1999
1,Oleksandr Voloshin,Олександр Волошин,Ukraine,1998-05-23,90,84.8,,,,,-145,152.5,-155,,,,,,152.5,Juniors 20-23,M,B,Raw,Yes,,152.5,,1998
1,Vadim Lyubarskiy,Вадим Любарський,Ukraine,1998-08-11,110,109.3,,,,,105,110,115,,,,,,115,Juniors 20-23,M,B,Raw,Yes,,115,,1998
1,Mikola Bolukh,Микола Болух,Ukraine,1983-01-11,56,55.48,,,,,102.5,105,,,,,,,105,Open,M,B,Raw,Yes,,105,,1983
2,Vladislav Shabash,Владислав Шабаш,Ukraine,1995-06-06,56,52.4,,,,,70,75,-80,,,,,,75,Open,M,B,Raw,Yes,,75,,1995
1,Oleksandr Kolomiets,Олександр Коломієць,Ukraine,1991-09-02,67.5,65.2,,,,,120,125,127.5,,,,,,127.5,Open,M,B,Raw,Yes,,127.5,,1991
2,Igor Taranenko,Ігор Тараненко,Ukraine,1994-09-14,67.5,65.6,,,,,105,110,-115,,,,,,110,Open,M,B,Raw,Yes,,110,,1994
1,Oleg Boyko,Олег Бойко,Ukraine,1986-08-10,75,74.6,,,,,145,150,-155,,,,,,150,Open,M,B,Raw,Yes,,150,,1986
2,Yakiv Goldenberg,Яків Гольденберг,Ukraine,1964-01-06,75,73.7,,,,,-147.5,147.5,-150,,,,,,147.5,Open,M,B,Raw,Yes,,147.5,,1964
3,Artur Brusin,Артур Брусін,Ukraine,1993-01-15,75,74.25,,,,,145,-150,-150,,,,,,145,Open,M,B,Raw,Yes,,145,,1993
4,Bogdan Yasinev,Богдан Ясінєв,Ukraine,1992-01-18,75,74.1,,,,,125,-130,130,,,,,,130,Open,M,B,Raw,Yes,,130,,1992
5,Evgen Kosik,Євген Косик,Ukraine,1995-01-24,75,74.15,,,,,125,130,-135,,,,,,130,Open,M,B,Raw,Yes,,130,,1995
1,Evgeniy Boloban,Євгеній Болобан,Ukraine,1996-08-28,82.5,76.6,,,,,160,170,-175,,,,,,170,Open,M,B,Raw,Yes,,170,,1996
2,Volodimir Getman,Володимир Гетьман,Ukraine,1995-02-07,82.5,81.7,,,,,155,160,-165,,,,,,160,Open,M,B,Raw,Yes,,160,,1995
3,Oleksiy Mishchenko,Олексій Міщенко,Ukraine,1993-12-24,82.5,79.8,,,,,145,150,152.5,,,,,,152.5,Open,M,B,Raw,Yes,,152.5,,1993
4,Pavlo Belka,Павло Бєлка,Ukraine,1994-02-03,82.5,78.6,,,,,145,147.5,150,,,,,,150,Open,M,B,Raw,Yes,,150,,1994
5,Eldar Musulov,Ельдар Мусульов,Ukraine,1991-12-29,82.5,80.35,,,,,140,145,147.5,,,,,,147.5,Open,M,B,Raw,Yes,,147.5,,1991
6,Oleg Chornoguz,Олег Чорногуз,Ukraine,1981-03-02,82.5,79.8,,,,,130,-135,-135,,,,,,130,Open,M,B,Raw,Yes,,130,,1981
7,Egor Stadnik,Єгор Стадник,Ukraine,1989-12-16,82.5,82.35,,,,,110,-120,-120,,,,,,110,Open,M,B,Raw,Yes,,110,,1989
DQ,Vadim Tocheniy,Вадим Точений,Ukraine,1986-08-26,82.5,79,,,,,-140,-140,-140,,,,,,,Open,M,B,Raw,Yes,,,,1986
1,Sergiy Ulyanenko,Сергій Ульяненко,Ukraine,1995-06-26,90,86.85,,,,,112.5,120,122.5,,,,,,122.5,Open,M,B,Raw,Yes,,122.5,,1995
1,Gennadiy Golembivskiy,Геннадій Голембівський,Ukraine,1982-01-16,100,100,,,,,180,185,-187.5,,,,,,185,Open,M,B,Raw,Yes,,185,,1982
2,Oleksandr Karvas,Олександр Карвась,Ukraine,1985-10-11,100,99.2,,,,,170,175,177.5,,,,,,177.5,Open,M,B,Raw,Yes,,177.5,,1985
3,Valeriy Durmanenko,Валерій Дурманенко,Ukraine,1988-06-08,100,96.5,,,,,160,170,175,,,,,,175,Open,M,B,Raw,Yes,,175,,1988
4,Dmitro Pronevich,Дмитро Проневич,Ukraine,1975-10-27,100,91.95,,,,,160,170,-175,,,,,,170,Open,M,B,Raw,Yes,,170,,1975
5,Evgeniy Tkachenko #2,Євгеній Ткаченко,Ukraine,1993-09-07,100,99.35,,,,,-155,162.5,-170,,,,,,162.5,Open,M,B,Raw,Yes,,162.5,,1993
1,Anatoliy Yukhimchuk,Анатолій Юхимчук,Ukraine,1989-06-09,110,105.5,,,,,150,-167.5,-167.5,,,,,,150,Open,M,B,Raw,Yes,,150,,1989
1,Dmitro Pronevich,Дмитро Проневич,Ukraine,1975-10-27,100,91.95,,,,,160,170,-175,,,,,,170,Masters 40-49,M,B,Raw,Yes,,170,,1975
2,Sergiy Danilenko,Сергій Даниленко,Ukraine,1977-10-23,100,99.1,,,,,140,-150,-150,,,,,,140,Masters 40-49,M,B,Raw,Yes,,140,,1977
1,Maksim Volvak,Максим Вольвак,Ukraine,1978-06-29,110,108,,,,,190,195,200,,,,,,200,Masters 40-49,M,B,Raw,Yes,,200,,1978
1,Yakiv Goldenberg,Яків Гольденберг,Ukraine,1964-01-06,75,73.7,,,,,-147.5,147.5,-150,,,,,,147.5,Masters 50-59,M,B,Raw,Yes,,147.5,,1964
1,Viktor Poshtarenko,Віктор Поштаренко,Ukraine,1970-02-06,90,88.95,,,,,130,-140,-140,,,,,,130,Masters 50-59,M,B,Raw,Yes,,130,,1970
1,Oleksandr Ostrovskiy,Олександр Островський,Ukraine,1953-02-10,75,74.1,,,,,70,-80,,,,,,,70,Masters 60-69,M,B,Raw,Yes,,70,,1953
1,Yuriy Starkov,Юрій Старков,Ukraine,1947-09-01,90,84.2,,,,,100,105,110,,,,,,110,Masters 70-79,M,B,Raw,Yes,,110,,1947
2,Vasil Turbal,Василь Турбал,Ukraine,1948-07-16,90,83.3,,,,,85,90,-95,,,,,,90,Masters 70-79,M,B,Raw,Yes,,90,,1948
1,Anna Burduk,Анна Бурдук,Ukraine,2000-12-28,52,51.34,,,,,40,-45,-50,,,,,,40,Teen 18-19,F,B,Raw,Yes,,40,,2000
1,Nadiya Krivonosenko,Надія Кривоносенко,Ukraine,1998-10-05,52,50.26,,,,,60,65,67.5,,,,,,67.5,Juniors 20-23,F,B,Raw,Yes,,67.5,,1998
1,Olena Valegova,Олена Валегова,Ukraine,1987-05-01,52,50.6,,,,,55,57.5,-60,,,,,,57.5,Open,F,B,Raw,Yes,,57.5,,1987
1,Valeriya Boyko,Валерія Бойко,Ukraine,1993-10-19,56,53.84,,,,,67.5,72.5,77.5,,,,,,77.5,Open,F,B,Raw,Yes,,77.5,,1993
2,Svitlana Latish,Світлана Латиш,Ukraine,1990-10-17,56,53.5,,,,,55,60,-62.5,,,,,,60,Open,F,B,Raw,Yes,,60,,1990
1,Nataliya Sokurenko,Наталія Сокуренко,Ukraine,1981-01-12,60,59.54,,,,,70,75,-80,,,,,,75,Open,F,B,Raw,Yes,,75,,1981
1,Oksana Ostroushko,Оксана Остроушко,Ukraine,1983-04-26,67.5,62,,,,,70,-75,75,,,,,,75,Open,F,B,Raw,Yes,,75,,1983
2,Tetyana Dzherelyuk,Тетяна Джерелюк,Ukraine,1983-07-08,67.5,61.55,,,,,60,-65,-65,,,,,,60,Open,F,B,Raw,Yes,,60,,1983
3,Katerina Filipova,Катерина Філіпова,Ukraine,1982-06-25,67.5,66.5,,,,,55,60,-65,,,,,,60,Open,F,B,Raw,Yes,,60,,1982
1,Nataliya Firsova,Наталія Фірсова,Ukraine,1966-10-16,56,55.88,,,,,55,57.5,62.5,,,,,,62.5,Masters 50-59,F,B,Raw,Yes,,62.5,,1966
1,Dmitro Kravchuk,Дмитро Кравчук,Ukraine,2003-05-17,67.5,64.6,,,,,75,77.5,80,,,,,,80,Teen 16-17,M,B,Raw,No,,80,,2003
2,Mikola Glushko,Микола Глушко,Ukraine,2002-12-18,67.5,67.5,,,,,70,75,80,,,,,,80,Teen 16-17,M,B,Raw,No,,80,,2002
1,Ruslan Shevelko,Руслан Шевелько,Ukraine,1999-05-25,100,99,,,,,195,200,210,,,,,,210,Juniors 20-23,M,B,Raw,No,,210,,1999
2,Sergiy Seleznov,Сергій Селезньов,Ukraine,1996-04-13,100,99.85,,,,,150,160,-170,,,,,,160,Open,M,B,Raw,No,,160,,1996
1,Anton Shipilov,Антон Шипилов,Ukraine,1986-09-19,82.5,79.15,,,,,165,175,180,,,,,,180,Open,M,B,Raw,No,,180,,1986
1,Mikhaylo Morozov,Михайло Морозов,Ukraine,1987-08-29,90,84.85,,,,,200,210,-220,,,,,,210,Open,M,B,Raw,No,,210,,1987
2,Dmitro Lubchinskiy,Дмитро Лубчинський,Ukraine,1992-03-07,90,88.6,,,,,175,-185,185,,,,,,185,Open,M,B,Raw,No,,185,,1992
3,Yaroslav Podvorchanskiy,Ярослав Подворчанський,Ukraine,1991-12-21,90,86.9,,,,,-180,180,-185,,,,,,180,Open,M,B,Raw,No,,180,,1991
1,Maksim Elskiy,Максим Єльський,Ukraine,1985-08-22,100,99.6,,,,,217.5,227.5,-230,,,,,,227.5,Open,M,B,Raw,No,,227.5,,1985
2,Andriy Kotovenko,Андрій Котовенко,Ukraine,1983-01-16,100,93.8,,,,,180,185,190,,,,,,190,Open,M,B,Raw,No,,190,,1983
1,Evgeniy Rudnik,Євгеній Руднік,Ukraine,1978-03-01,110,108.4,,,,,220,227.5,232.5,,,,,,232.5,Open,M,B,Raw,No,,232.5,,1978
2,Sergiy Dromov,Сергій Дрьомов,Ukraine,1968-11-10,110,108.1,,,,,195,205,-210.5,,,,,,205,Open,M,B,Raw,No,,205,,1968
3,Bogdan Solomakha,Богдан Соломаха,Ukraine,1996-05-29,110,102.7,,,,,180,187.5,-192.5,,,,,,187.5,Open,M,B,Raw,No,,187.5,,1996
1,Oleksandr Tarasov,Олександр Тарасов,Ukraine,1991-10-27,125,123.7,,,,,215,225,,,,,,,225,Open,M,B,Raw,No,,225,,1991
1,Dmitro Kravchinskiy,Дмитро Кравчинський,Ukraine,1982-05-19,140,129,,,,,205,210,217.5,,,,,,217.5,Open,M,B,Raw,No,,217.5,,1982
1,Andriy Petruk,Андрій Петрук,Ukraine,1975-01-15,100,99.6,,,,,190,200,,,,,,,200,Masters 40-49,M,B,Raw,No,,200,,1975
3,Yuriy Servetskiy,Юрій Сервецький,Ukraine,1977-06-07,100,92.65,,,,,160,-170,-170,,,,,,160,Masters 40-49,M,B,Raw,No,,160,,1977
1,Evgeniy Rudnik,Євгеній Руднік,Ukraine,1978-03-01,110,108.4,,,,,220,227.5,232.5,,,,,,232.5,Masters 40-49,M,B,Raw,No,,232.5,,1978
2,Andriy Shlyama,Андрій Шляма,Ukraine,1976-04-20,110,107.9,,,,,170,180,190,,,,,,190,Masters 40-49,M,B,Raw,No,,190,,1976
1,Sergiy Dromov,Сергій Дрьомов,Ukraine,1968-11-10,110,108.1,,,,,195,205,-210.5,,,,,,205,Masters 50-59,M,B,Raw,No,,205,,1968
1,Volodimir Khomenko,Володимир Хоменко,Ukraine,1973-12-05,125,122.9,,,,,260,270,-290,,,,,,270,Masters 40-49,M,B,Multi-ply,Yes,,270,,1973
1,Mikhaylo Pitinov,Михайло Пітінов,Ukraine,1971-05-07,125,123.88,,,,,190,200,-212.5,,,,,,200,Masters 40-49,M,B,Multi-ply,No,,200,,1971
1,Oleg Boyko,Олег Бойко,Ukraine,1986-08-10,75,74.6,,,,,165,180,-192.5,,,,,,180,Open,M,B,Multi-ply,No,,180,,1986
DQ,Andriy Goncharov,Андрій Гончаров,Ukraine,1981-01-31,110,109.25,,,,,-320,-320,-320,,,,,,,Open,M,B,Multi-ply,No,,,,1981
1,Katerina Filipova,Катерина Філіпова,Ukraine,1982-06-25,67.5,66.5,,,,,80,90,-105,,,,,,90,Open,F,B,Multi-ply,No,,90,,1982
1,Andriy Kotovenko,Андрій Котовенко,Ukraine,1983-01-16,100,93.8,,,,,-215,235,250,,,,,,250,Open,M,B,Multi-ply,No,,250,,1983
1,Bogdan Muzichenko,Богдан Музиченко,Ukraine,2008-07-30,48,46.7,,,,,,,,,80,90,-100,,90,Youth,M,D,Raw,Yes,,,90,2008
2,Maksim Chornenko,Максим Чорненко,Ukraine,2007-11-07,44,36.4,,,,,,,,,70,77.5,82.5,,82.5,Youth,M,D,Raw,Yes,,,82.5,2007
1,Evgeniy Pilipenko,Євгеній Пилипенко,Ukraine,2009-02-02,60,60,,,,,,,,,50,60,-70,,60,Youth,M,D,Raw,Yes,,,60,2009
1,Dmitro Repetukha,Дмитро Репетуха,Ukraine,2006-02-28,52,51.14,,,,,,,,,100,105,110,,110,Teen 13-15,M,D,Raw,Yes,,,110,2006
2,Illya Kolesniy,Ілля Колесний,Ukraine,2007-05-21,48,46.94,,,,,,,,,80,85,90,,90,Teen 13-15,M,D,Raw,Yes,,,90,2007
1,Vitaliy Melnichenko,Віталій Мельніченко,Ukraine,2003-09-12,67.5,67.25,,,,,,,,,150,160,170,,170,Teen 16-17,M,D,Raw,Yes,,,170,2003
1,Vitaliy Kovba,Віталій Ковба,Ukraine,2003-04-17,75,73.1,,,,,,,,,180,185,190,,190,Teen 16-17,M,D,Raw,Yes,,,190,2003
1,Yaroslav Gavyada,Ярослав Гав'яда,Ukraine,2003-02-18,110,106.5,,,,,,,,,235,-245,245,,245,Teen 16-17,M,D,Raw,Yes,,,245,2003
2,Daniil Kovalenko #3,Данііл Коваленко,Ukraine,2003-09-06,110,102.3,,,,,,,,,210,230,-250,,230,Teen 16-17,M,D,Raw,Yes,,,230,2003
1,Andriy Raychuk,Андрій Райчук,Ukraine,2001-03-03,75,72.4,,,,,,,,,200,220,-227.5,,220,Teen 18-19,M,D,Raw,Yes,,,220,2001
1,Vasil Zvizdaryuk,Василь Звіздарюк,Ukraine,2000-01-27,90,87.9,,,,,,,,,230,240,250,,250,Juniors 20-23,M,D,Raw,Yes,,,250,2000
1,Sergiy Martinenko,Сергій Мартиненко,Ukraine,1989-10-02,67.5,66.45,,,,,,,,,-200,207.5,-215,,207.5,Open,M,D,Raw,Yes,,,207.5,1989
2,Denis Rabin,Денис Рабін,Ukraine,1989-09-14,67.5,64.9,,,,,,,,,160,175,-190,,175,Open,M,D,Raw,Yes,,,175,1989
3,Evgeniy Kamenev,Євгеній Каменев,Ukraine,1992-06-08,67.5,61.2,,,,,,,,,160,-180,-180,,160,Open,M,D,Raw,Yes,,,160,1992
1,Valentin Gontar,Валентин Гонтар,Ukraine,1987-09-26,75,75,,,,,,,,,250,-260,260,,260,Open,M,D,Raw,Yes,,,260,1987
2,Sergiy Sakhno,Сергій Сахно,Ukraine,1994-02-05,75,71.7,,,,,,,,,185,200,210,,210,Open,M,D,Raw,Yes,,,210,1994
3,Dmitro Girnik,Дмитро Гірник,Ukraine,1982-04-22,75,72.2,,,,,,,,,180,192.5,200,,200,Open,M,D,Raw,Yes,,,200,1982
4,Kostyantin Akhremenko,Костянтин Ахременко,Ukraine,1995-08-04,75,68.8,,,,,,,,,170,182.5,190,,190,Open,M,D,Raw,Yes,,,190,1995
1,Sergiy Risenko,Сергій Рисенко,Ukraine,1987-09-16,82.5,81.75,,,,,,,,,220,235,-250,,235,Open,M,D,Raw,Yes,,,235,1987
2,Dmytro Solovyov,Дмитро Соловйов,Ukraine,1983-10-17,82.5,80.2,,,,,,,,,-220,-220,225,,225,Open,M,D,Raw,Yes,,,225,1983
3,Yuriy Kovalenko,Юрій Коваленко,Ukraine,1994-12-09,82.5,79.3,,,,,,,,,195,210,220,,220,Open,M,D,Raw,Yes,,,220,1994
4,Oleksandr Pilipenko,Олександр Пилипенко,Ukraine,1994-04-17,82.5,81.75,,,,,,,,,165,180,-190,,180,Open,M,D,Raw,Yes,,,180,1994
5,Egor Stadnik,Єгор Стадник,Ukraine,1989-12-16,82.5,82.35,,,,,,,,,170,-182.5,-182.5,,170,Open,M,D,Raw,Yes,,,170,1989
1,Oleksandr Drobilko,Олександр Дробілко,Ukraine,1972-11-13,90,88.7,,,,,,,,,220,240,250,,250,Open,M,D,Raw,Yes,,,250,1972
1,Volodimir Plyuta,Володимир Плюта,Ukraine,1992-03-01,100,93.8,,,,,,,,,210,230,245,,245,Open,M,D,Raw,Yes,,,245,1992
1,Maksim Moskalenko,Максим Москаленко,Ukraine,1996-04-03,110,103.25,,,,,,,,,240,-250,250,,250,Open,M,D,Raw,Yes,,,250,1996
1,Mikola Yanushev,Микола Янушев,Ukraine,1976-12-05,75,73.5,,,,,,,,,227.5,237.5,-242.5,,237.5,Masters 40-49,M,D,Raw,Yes,,,237.5,1976
1,Oleksandr Drobilko,Олександр Дробілко,Ukraine,1972-11-13,90,88.7,,,,,,,,,220,240,250,,250,Masters 40-49,M,D,Raw,Yes,,,250,1972
1,Sergiy Danilenko,Сергій Даниленко,Ukraine,1977-10-23,100,99.1,,,,,,,,,220,235,-247.5,,235,Masters 40-49,M,D,Raw,Yes,,,235,1977
1,Viktor Poshtarenko,Віктор Поштаренко,Ukraine,1970-02-06,90,88.95,,,,,,,,,210,225,-237.5,,225,Masters 50-59,M,D,Raw,Yes,,,225,1970
2,Genadiy Ostrovskiy,Генадій Островський,Ukraine,1965-01-08,90,88.5,,,,,,,,,207.5,-217.5,-217.5,,207.5,Masters 50-59,M,D,Raw,Yes,,,207.5,1965
1,Oleksandr Ostrovskiy,Олександр Островський,Ukraine,1953-02-10,75,74.1,,,,,,,,,150,160,,,160,Masters 60-69,M,D,Raw,Yes,,,160,1953
1,Ivan Slipchenko,Іван Сліпченко,Ukraine,1958-10-04,125,115.2,,,,,,,,,180,185,190,,190,Masters 60-69,M,D,Raw,Yes,,,190,1958
1,Yuriy Starkov,Юрій Старков,Ukraine,1947-09-01,90,84.2,,,,,,,,,200,210,220,,220,Masters 70-79,M,D,Raw,Yes,,,220,1947
2,Vasil Turbal,Василь Турбал,Ukraine,1948-07-16,90,83.3,,,,,,,,,100,120,140,,140,Masters 70-79,M,D,Raw,Yes,,,140,1948
1,Renata Ignatova,Рената Ігнатова,Ukraine,2004-11-05,75,68.8,,,,,,,,,95,100,105,,105,Teen 13-15,F,D,Raw,Yes,,,105,2004
1,Viktoriya Pomazun,Вікторія Помазун,Ukraine,2002-09-27,52,50.46,,,,,,,,,92.5,-102.5,102.5,,102.5,Teen 16-17,F,D,Raw,Yes,,,102.5,2002
1,Yuliya Ponomarenko,Юлія Пономаренко,Ukraine,1987-10-18,48,46.5,,,,,,,,,110,115,120,,120,Open,F,D,Raw,Yes,,,120,1987
1,Olena Valegova,Олена Валегова,Ukraine,1987-05-01,52,50.6,,,,,,,,,140,-145,,,140,Open,F,D,Raw,Yes,,,140,1987
1,Olga Dimkova,Ольга Димкова,Ukraine,1987-08-27,56,52.8,,,,,,,,,117.5,125,-127.5,,125,Open,F,D,Raw,Yes,,,125,1987
1,Nataliya Sokurenko,Наталія Сокуренко,Ukraine,1981-01-12,60,59.54,,,,,,,,,130,140,-145,,140,Open,F,D,Raw,Yes,,,140,1981
1,Tetyana Dzherelyuk,Тетяна Джерелюк,Ukraine,1983-07-08,67.5,61.55,,,,,,,,,130,147.5,-150,,147.5,Open,F,D,Raw,Yes,,,147.5,1983
2,Oksana Ostroushko,Оксана Остроушко,Ukraine,1983-04-26,67.5,62,,,,,,,,,130,140,147.5,,147.5,Open,F,D,Raw,Yes,,,147.5,1983
3,Anna Vakarenko,Анна Вакаренко,Ukraine,1990-07-11,67.5,65.6,,,,,,,,,120,130,-140,,130,Open,F,D,Raw,Yes,,,130,1990
4,Katerina Filipova,Катерина Філіпова,Ukraine,1982-06-25,67.5,66.5,,,,,,,,,100,120,,,120,Open,F,D,Raw,Yes,,,120,1982
1,Vita Rudakova,Віта Рудакова,Ukraine,1980-02-03,75,73.4,,,,,,,,,150,-162.5,-162.5,,150,Open,F,D,Raw,Yes,,,150,1980
2,Irina Kairova,Ірина Каірова,Ukraine,1982-12-10,75,73.35,,,,,,,,,95,102.5,105,,105,Open,F,D,Raw,Yes,,,105,1982
1,Nataliya Redka,Наталія Редька,Ukraine,1975-10-08,67.5,60.55,,,,,,,,,105,112.5,117.5,,117.5,Masters 40-49,F,D,Raw,Yes,,,117.5,1975
1,Vita Rudakova,Віта Рудакова,Ukraine,1980-02-03,75,73.4,,,,,,,,,150,-162.5,-162.5,,150,Masters 40-49,F,D,Raw,Yes,,,150,1980
DQ,Sergiy Shevchenko,Сергій Шевченко,Ukraine,1991-08-13,75,74.9,,,,,,,,,-230,-250,-250,,,Open,M,D,Raw,No,,,,1991
1,Zhorzh Togola,Жорж Тогола,Ukraine,1989-04-05,110,109.9,,,,,,,,,340,-350,,,340,Open,M,D,Raw,No,,,340,1989
1,Oleksandr Tarasov,Олександр Тарасов,Ukraine,1991-10-27,125,123.7,,,,,,,,,-320,320,335,,335,Open,M,D,Raw,No,,,335,1991
1,Dmitro Kravchinskiy,Дмитро Кравчинський,Ukraine,1982-05-19,140,129,,,,,,,,,325,-335.5,,,325,Open,M,D,Raw,No,,,325,1982
2,Oleg Lungu,Олег Лунгу,Ukraine,1972-11-17,100,92.1,,,,,,,,,220,235,-240,,235,Masters 40-49,M,D,Raw,No,,,235,1972
1,Zhaneta Shostak,Жанета Шостак,Ukraine,1972-07-26,75,71.1,,,,,,,,,127.5,140,145,,145,Masters 40-49,F,D,Raw,No,,,145,1972
