Place,Name,CyrillicName,BirthDate,BodyweightKg,WeightClassKg,Division,Sex,Squat1Kg,Squat2Kg,Squat3Kg,Best3SquatKg,Squat4Kg,Bench1Kg,Bench2Kg,Bench3Kg,Best3BenchKg,Bench4Kg,Deadlift1Kg,Deadlift2Kg,Deadlift3Kg,Best3DeadliftKg,Deadlift4Kg,TotalKg,Event,Equipment,Tested
1,Daniil Matvienko,Данііл Матвієнко,2007-12-04,37.96,44,Youth,M,52.5,55,57.5,57.5,,30,35,-37.5,35,,75,80,-82.5,80,,172.5,SBD,Wraps,Yes
2,Evgeniy Kurinniy,Євгеній Курінний,2008-06-04,33.48,44,Youth,M,55,60,-62.5,60,,25,30,-32.5,30,,75,80,-85,80,,170,SBD,Wraps,Yes
1,Sergiy Kurinniy,Сергій Курінний,2003-12-26,52.45,56,Teen 13-15,M,90,95,100,100,,60,65,67.5,67.5,,120,125,130,130,,297.5,SBD,Wraps,Yes
1,Vladislav Nagorniy,Владислав Нагорний,2004-10-30,70.3,75,Teen 13-15,M,110,120,125,125,,70,77.5,80,80,,-110,110,115,115,,320,SBD,Wraps,Yes
1,Igor Voytenko,Ігор Войтенко,2003-06-30,75.7,82.5,Teen 16-17,M,142.5,150,-155,150,,80,85,90,90,,165,172.5,-180,172.5,,412.5,SBD,Wraps,Yes
1,Andriy Raychuk,Андрій Райчук,2001-03-03,72.3,75,Teen 18-19,M,160,170,175,175,,100,110,120,120,,185,200,-207.5,200,,495,SBD,Wraps,Yes
1,Bogdan Payanok,Богдан Паянок,2001-07-11,82,82.5,Teen 18-19,M,160,165,-170,165,,95,100,-102.5,100,,200,205,,205,,470,SBD,Wraps,Yes
2,Yaroslav Slutskiy,Ярослав Слуцький,2001-01-24,80.4,82.5,Teen 18-19,M,150,160,-167.5,160,,105,112.5,115,115,,170,182.5,190,190,,465,SBD,Wraps,Yes
1,Andriy Konchak,Андрій Кончак,1996-02-05,80.95,82.5,Juniors 20-23,M,-200,200,-205,200,,147.5,150,-152.5,150,,220,232.5,240,240,,590,SBD,Wraps,Yes
2,Danilo Mayorenko,Данило Майоренко,1999-07-10,78.5,82.5,Juniors 20-23,M,170,180,-187.5,180,,-97.5,100,110,110,,170,182.5,190,190,,480,SBD,Wraps,Yes
3,Vladislav Prozorovskiy,Владислав Прозоровський,1998-06-02,79.35,82.5,Juniors 20-23,M,140,-155,-155,140,,85,95,-105,95,,165,180,195,195,,430,SBD,Wraps,Yes
1,Anatoliy Kuzyura,Анатолій Кузюра,1998-08-07,90,90,Juniors 20-23,M,202.5,215,-230,215,,130,142.5,150,150,,255,271,275,275,,640,SBD,Wraps,Yes
1,Valentin Gontar,Валентин Гонтар,1987-09-26,75,75,Open,M,-240,247.5,260,260,,145,-150,-150,145,,257.5,265,-270.5,265,,670,SBD,Wraps,Yes
1,Egor Stadnik,Єгор Стадник,1989-12-16,81.55,82.5,Open,M,170,180,-190,180,,100,110,115,115,,160,175,-182.5,175,,470,SBD,Wraps,Yes
2,Ruslan Sichenko,Руслан Сиченко,1988-02-08,77.3,82.5,Open,M,145,150,155,155,,90,95,97.5,97.5,,170,180,185,185,,437.5,SBD,Wraps,Yes
3,V'yacheslav Soroka,В'ячеслав Сорока,1990-10-27,79.8,82.5,Open,M,130,140,-145,140,,85,-95,97.5,97.5,,120,140,145,145,,382.5,SBD,Wraps,Yes
1,Oleksandr Slobodyanik,Олександр Слободяник,1986-12-26,97.9,100,Open,M,200,210,220,220,,130,135,140,140,,-230,230,-240,230,,590,SBD,Wraps,Yes
2,Oleksiy Zhadko,Олексій Жадько,1991-03-30,99.7,100,Open,M,180,200,210,210,,120,130,-137.5,130,,220,240,-242.5,240,,580,SBD,Wraps,Yes
1,Ivan Ilchenko,Іван Ільченко,1988-07-19,110,110,Open,M,-190,190,-210,190,,125,135,-145,135,,190,205,220,220,,545,SBD,Wraps,Yes
1,Viktor Poshtarenko,Віктор Поштаренко,1970-02-06,88.9,90,Masters 40-49,M,195,-205,207.5,207.5,,130,137.5,140.5,140.5,,210,-230,-230,210,,558,SBD,Wraps,Yes
1,Yuriy Stetsenko,Юрій Стеценко,1975-09-06,96.3,100,Masters 40-49,M,190,-200,-200,190,,120,125,130,130,,190,205,210,210,,530,SBD,Wraps,Yes
DQ,Sergiy Danilenko,Сергій Даниленко,1977-10-27,105.2,110,Masters 40-49,M,-170,-170,-170,,,-145,-150,-152.5,,,-210,-225,-235,,,,SBD,Wraps,Yes
1,Varvara Pustilnik,Варвара Пустільнік,2003-12-17,55.16,56,Teen 13-15,F,90,100,106,106,,45,50,52.5,52.5,,117.5,-127.5,-127.5,117.5,,276,SBD,Wraps,Yes
1,Nataliya Kondratenko,Наталія Кондратенко,2002-03-17,55,56,Teen 16-17,F,70,80,82.5,82.5,,35,40,-42.5,40,,90,100,105,105,,227.5,SBD,Wraps,Yes
1,Evgeniya Bishovets,Євгенія Бишовець,2003-01-21,66.95,67.5,Teen 16-17,F,-80,-80,85,85,,40,42.5,45,45,,80,87.5,-92.5,87.5,,217.5,SBD,Wraps,Yes
1,Anastasiya Stetsenko,Анастасія Стеценко,2003-02-21,68.35,75,Teen 16-17,F,105,110,120,120,,57.5,62.5,-65,62.5,,-115,115,,115,,297.5,SBD,Wraps,Yes
1,Yuliya Kolyagina,Юлія Колягіна,1999-08-07,51.82,52,Juniors 20-23,F,-85,85,90,90,,-52.5,52.5,-55,52.5,,105,-115,115,115,,257.5,SBD,Wraps,Yes
1,Mariya Brayko,Мария Брайко,1997-12-03,65.3,67.5,Juniors 20-23,F,120,140,-150,140,,55,65,-70,65,,110,130,-135,130,,335,SBD,Wraps,Yes
1,Tora Goldman,Тора Гольдман,1991-06-01,50.3,52,Open,F,-75,75,92.5,92.5,,35,45,55,55,,70,90,100,100,,247.5,SBD,Wraps,Yes
1,Tetyana Dzherelyuk,Тетяна Джерелюк,1983-07-08,59.62,60,Open,F,95,-105,-105,95,,52.5,-57.5,-57.5,52.5,,120,130,-140,130,,277.5,SBD,Wraps,Yes
DQ,Marina Matvienko,Марина Матвієнко,1989-03-17,58.84,60,Open,F,-125,-125,-125,,,-75,,,,,-140,-150,-160,,,,SBD,Wraps,Yes
DQ,Nataliya Sokurenko,Наталія Сокуренко,1981-01-12,59.92,60,Open,F,-150,-150,-150,,,-70,-75,-75,,,-145,-155,-155,,,,SBD,Wraps,Yes
1,Oksana Ostroushko,Оксана Остроушко,1983-04-26,62.05,67.5,Open,F,105,110,115,115,,65,70,-75,70,,130,140,150,150,,335,SBD,Wraps,Yes
1,Vita Rudakova,Віта Рудакова,1980-02-03,72.1,75,Open,F,105,-110,-110,105,,55,-60,-60,55,,145,-160,-160,145,,305,SBD,Wraps,Yes
1,Svitlana Kravchenko,Світлана Кравченко,1971-05-11,54.7,56,Masters 40-49,F,90,100,-105,100,,50,55,-57.5,55,,105,115,-125,115,,270,SBD,Wraps,Yes
1,Dmitro Shpak,Дмитро Шпак,1991-11-03,81.15,82.5,Open,M,225,235,-250,235,,130,-140,140,140,,200,210,-225,210,,585,SBD,Wraps,No
1,Eduard Kachur,Едуард Качур,1992-10-07,98.3,100,Open,M,190,205,222.5,222.5,,145,155,165,165,,215,240,252.5,252.5,,640,SBD,Wraps,No
1,Leonid Konovalchuk,Леонід Коновальчук,1985-09-03,105.2,110,Open,M,200,-210,-215,200,,160,-170,-170,160,,220,230,-240,230,,590,SBD,Wraps,No
DQ,Artem Sidorchuk,Артем Сидорчук,1991-09-01,103.2,110,Open,M,240,-250,-250,240,,180,-190,,180,,-250,-250,,,,,SBD,Wraps,No
1,Dmitro Kravchinskiy,Дмитро Кравчинський,1982-05-19,128.25,140,Open,M,215,-225,225,225,,195,205,210,210,,300,315,-325,315,,750,SBD,Wraps,No
2,Nazar Kozub,Назар Козуб,1993-08-17,130.45,140,Open,M,-265,265,-280,265,,155,167.5,175,175,,270,-310,-320,270,,710,SBD,Wraps,No
1,Volodimir Starchenko,Володимир Старченко,1975-02-07,88.65,90,Masters 40-49,M,200,205,210,210,,125,127.5,-130,127.5,,220,227.5,-235,227.5,,565,SBD,Wraps,No
1,Sergiy Zakharov,Сергій Захаров,1977-12-17,97.9,100,Masters 40-49,M,55,,,55,,155,-162.5,-162.5,155,,55,,,55,,265,SBD,Wraps,No
1,Adelaida Poddueva,Аделаїда Поддуєва,1989-10-12,66.2,67.5,Open,F,165,-175,175,175,,95,100,-102.5,100,,145,150,155,155,,430,SBD,Wraps,No
1,Nikita Naumovich,Нікіта Наумович,2005-07-22,48.36,52,Teen 13-15,M,82.5,87.5,92.5,92.5,,45,50,52.5,52.5,-55,95,102.5,107.5,107.5,,252.5,SBD,Wraps,No
1,Dmitro Maer,Дмитро Маєр,2002-05-30,90,90,Teen 16-17,M,-125,125,-135,125,,80,85,-90,85,,135,140,147.5,147.5,,357.5,SBD,Wraps,No
1,Pavlo Svinarenko,Павло Свинаренко,1987-07-12,82.5,82.5,Open,M,180,190,-195,190,,125,132.5,-137.5,132.5,,-215,215,-220,215,,537.5,SBD,Wraps,No
1,Tetyana Korostel,Тетяна Коростель,2007-01-07,35.9,44,Youth,F,-20,25,30,30,,20,25,27.5,27.5,,50,65,75,75,,132.5,SBD,Wraps,Yes
1,Viktoriya Pomazun,Вікторія Помазун,2002-09-27,52.98,56,Teen 16-17,F,50,55,-60,55,,40,-45,-45,40,,92.5,97.5,102.5,102.5,,197.5,SBD,Wraps,Yes
1,Liliya Timofiїva,Лілія Тимофіїва,1999-09-27,64.1,67.5,Juniors 20-23,F,90,95,100,100,,45,50,-52.5,50,,112.5,125,-130,125,,275,SBD,Wraps,Yes
1,Olena Valegova,Олена Валегова,1987-05-01,50.86,52,Open,F,-90,90,95,95,,52.5,-57.5,-57.5,52.5,,130,137.5,142.5,142.5,,290,SBD,Wraps,Yes
1,Anna Vakarenko,Анна Вакаренко,1990-07-11,65.65,67.5,Open,F,85,95,-102.5,95,,47.5,52.5,-55,52.5,,120,-127.5,-127.5,120,,267.5,SBD,Wraps,Yes
1,Nikita Naumovich,Нікіта Наумович,2005-07-22,48.36,52,Teen 13-15,M,,,,,,45,50,52.5,52.5,-55,95,102.5,107.5,107.5,,160,BD,Raw,Yes
1,Kiril Skobin,Кирил Скобин,2002-10-19,75,75,Teen 16-17,M,,,,,,-115,117.5,-120,117.5,,145,155,162.5,162.5,,280,BD,Raw,Yes
DQ,Oleksiy Kiyanovskiy,Олексій Кияновський,2001-06-20,73.1,75,Teen 18-19,M,,,,,,-95,-95,-95,,,-150,,,,,,BD,Raw,Yes
1,Oleksandr Burmak,Олександр Бурмак,1999-05-26,73.9,75,Juniors 20-23,M,,,,,,85,-90,-90,85,,217.5,222.5,-227.5,222.5,,307.5,BD,Raw,Yes
1,Dmitro Nikolaev,Дмитро Ніколаєв,1996-09-11,97.4,100,Juniors 20-23,M,,,,,,145,155,162.5,162.5,,280,300,310,310,,472.5,BD,Raw,Yes
1,Sergiy Kalchuk,Сергій Кальчук,1989-06-29,65.8,67.5,Open,M,,,,,,90,100,,100,,140,160,,160,,260,BD,Raw,Yes
1,Valentin Gontar,Валентин Гонтар,1987-09-26,75,75,Open,M,,,,,,145,-150,-150,145,,257.5,265,-270.5,265,,410,BD,Raw,Yes
1,Stanislav Shubin,Станіслав Шубін,1992-06-30,97.9,100,Open,M,,,,,,155,162.5,-170,162.5,,250,265,-275,265,,427.5,BD,Raw,Yes
2,Oleksandr Slobodyanik,Олександр Слободяник,1986-12-26,97.9,100,Open,M,,,,,,130,135,140,140,,-230,230,-240,230,,370,BD,Raw,Yes
3,Dmitro Beresten,Дмитро Берестень,1987-08-23,98.15,100,Open,M,,,,,,130,-140,-140,130,,180,195,-205,195,,325,BD,Raw,Yes
1,Sergiy Radchenko,Сергій Радченко,1989-03-27,108.85,110,Open,M,,,,,,170,180,-195,180,,250,-265,-265,250,,430,BD,Raw,Yes
DQ,Eduard Gusev,Едуард Гусєв,1990-07-27,101,110,Open,M,,,,,,-145,-150,-150,,,-225,-240,-240,,,,BD,Raw,Yes
1,Roman Radchuk,Роман Радчук,1989-08-30,113.4,125,Open,M,,,,,,130,140,150,150,,180,200,210,210,,360,BD,Raw,Yes
1,Yuriy Stetsenko,Юрій Стеценко,1975-09-06,96.3,100,Masters 40-49,M,,,,,,120,125,130,130,,190,205,210,210,,340,BD,Raw,Yes
1,Sergiy Danilenko,Сергій Даниленко,1977-10-27,105.2,110,Masters 40-49,M,,,,,,145,150,-152.5,150,,210,225,235,235,,385,BD,Raw,Yes
1,Yaroslav Zbitkovskiy,Ярослав Збитковський,1964-09-01,95.5,100,Masters 50-59,M,,,,,,-120,125,-135,125,,180,200,210,210,,335,BD,Raw,Yes
1,Anastasiya Stetsenko,Анастасія Стеценко,2003-02-21,68.35,75,Teen 16-17,F,,,,,,57.5,62.5,-65,62.5,,-115,115,,115,,177.5,BD,Raw,Yes
1,Tetyana Dzherelyuk,Тетяна Джерелюк,1983-07-08,59.62,60,Open,F,,,,,,52.5,-57.5,-57.5,52.5,,120,130,-140,130,,182.5,BD,Raw,Yes
1,Vita Rudakova,Віта Рудакова,1980-02-03,72.1,75,Open,F,,,,,,55,-60,-60,55,,145,-160,-160,145,,200,BD,Raw,Yes
1,Inga Chaykovska,Інга Чайковська,1964-05-26,58.78,60,Masters 50-59,F,,,,,,25,30,32.5,32.5,,60,67.5,-70,67.5,,100,BD,Raw,Yes
1,Oleg Kovalchuk,Олег Ковальчук,1987-06-15,105.1,110,Open,M,,,,,,180,190,195,195,,270,282.5,-290,282.5,,477.5,BD,Raw,No
1,Dmitro Kravchinskiy,Дмитро Кравчинський,1982-05-19,128.25,140,Open,M,,,,,,195,205,210,210,,300,315,-325,315,,525,BD,Raw,No
1,Sergiy Zakharov,Сергій Захаров,1977-12-17,97.9,100,Masters 40-49,M,,,,,,155,-162.5,-162.5,155,,55,,,55,,210,BD,Raw,No
1,Oleksandr Bordyug,Олександр Бордюг,2000-01-05,72.95,75,Teen 18-19,M,165,-175,-175,165,,,,,,,,,,,,165,S,Wraps,Yes
1,Vitaliy Marchenko #3,Віталій Марченко,1993-12-26,74.2,75,Open,M,120,-130,130,130,,,,,,,,,,,,130,S,Wraps,Yes
1,Egor Stadnik,Єгор Стадник,1989-12-16,81.55,82.5,Open,M,170,180,-190,180,,,,,,,,,,,,180,S,Wraps,Yes
1,Yuriy Stetsenko,Юрій Стеценко,1975-09-06,96.3,100,Masters 40-49,M,190,-200,-200,190,,,,,,,,,,,,190,S,Wraps,Yes
1,Anastasiya Stetsenko,Анастасія Стеценко,2003-02-21,68.35,75,Teen 16-17,F,105,110,120,120,,,,,,,,,,,,120,S,Wraps,Yes
1,Svitlana Kravchenko,Світлана Кравченко,1971-05-11,54.7,56,Masters 40-49,F,90,100,-105,100,,,,,,,,,,,,100,S,Wraps,Yes
1,Andriy Shlyama,Андрій Шляма,1976-04-20,105.4,110,Masters 40-49,M,-240,250,260,260,,,,,,,,,,,,260,S,Wraps,No
1,Olena Valegova,Олена Валегова,1987-05-01,50.86,52,Open,F,-90,90,95,95,,,,,,,,,,,,95,S,Wraps,Yes
1,Illya Kolesniy,Ілля Колесний,2007-05-21,42.6,44,Youth,M,,,,,,42.5,47.5,50,50,,,,,,,50,B,Raw,Yes
1,Mikhaylo Babenko,Михайло Бабенко,2005-05-19,79.6,82.5,Teen 13-15,M,,,,,,52.5,57.5,62.5,62.5,,,,,,,62.5,B,Raw,Yes
1,Kiril Zhuravlov,Кирил Журавльов,2003-05-28,59.4,60,Teen 16-17,M,,,,,,90,-97.5,-97.5,90,,,,,,,90,B,Raw,Yes
2,Andriy Sitnikov,Андрій Сітніков,2003-01-08,58.9,60,Teen 16-17,M,,,,,,77.5,82.5,-85,82.5,,,,,,,82.5,B,Raw,Yes
1,Kiril Skobin,Кирил Скобин,2002-10-19,75,75,Teen 16-17,M,,,,,,-115,117.5,-120,117.5,,,,,,,117.5,B,Raw,Yes
1,Andriy Kobilyanskiy,Андрій Кобилянський,2002-02-18,80.2,82.5,Teen 16-17,M,,,,,,92.5,100,105,105,,,,,,,105,B,Raw,Yes
1,Yaroslav Grishchuk,Ярослав Грищук,2002-02-20,106.2,110,Teen 16-17,M,,,,,,125,-127.5,-127.5,125,,,,,,,125,B,Raw,Yes
1,Andriy Raychuk,Андрій Райчук,2001-03-03,72.3,75,Teen 18-19,M,,,,,,100,110,120,120,,,,,,,120,B,Raw,Yes
1,Oleksandr Bezugliy,Олександр Безуглий,1996-03-10,74.2,75,Juniors 20-23,M,,,,,,130,-135,135,135,,,,,,,135,B,Raw,Yes
1,Evgeniy Boloban,Євгеній Болобан,1996-08-28,78.9,82.5,Juniors 20-23,M,,,,,,185,190,195,195,,,,,,,195,B,Raw,Yes
2,Ruslan Ranyuk,Руслан Ранюк,1996-08-26,82,82.5,Juniors 20-23,M,,,,,,-140,145,150,150,,,,,,,150,B,Raw,Yes
3,Yuriy Smal,Юрій Смаль,1998-08-09,80.8,82.5,Juniors 20-23,M,,,,,,122.5,-127.5,127.5,127.5,,,,,,,127.5,B,Raw,Yes
4,Volodimir Grushka,Володимир Грушка,1996-03-19,80.4,82.5,Juniors 20-23,M,,,,,,115,120,-125,120,,,,,,,120,B,Raw,Yes
5,Igor Tomkiv,Ігор Томків,1996-10-03,80.8,82.5,Juniors 20-23,M,,,,,,95,107.5,-115,107.5,,,,,,,107.5,B,Raw,Yes
1,Kostyantin Kostyuk,Костянтин Костюк,1996-06-13,85.9,90,Juniors 20-23,M,,,,,,140,147.5,-150,147.5,,,,,,,147.5,B,Raw,Yes
1,David Bratchenko,Давид Братченко,1999-09-23,103.4,110,Juniors 20-23,M,,,,,,157.5,167.5,,167.5,,,,,,,167.5,B,Raw,Yes
1,Stanislav Podobed,Станислав Подобед,1991-10-23,67,67.5,Open,M,,,,,,107.5,-110,-110,107.5,,,,,,,107.5,B,Raw,Yes
1,Yakiv Goldenberg,Яків Гольденберг,1964-01-06,74.5,75,Open,M,,,,,,140,150,152.5,152.5,,,,,,,152.5,B,Raw,Yes
2,Vadim Fedusenko,Вадим Федусенко,1994-06-02,74.2,75,Open,M,,,,,,125,-135,140,140,,,,,,,140,B,Raw,Yes
3,Evgen Naumenko,Євген Науменко,1989-06-22,74.4,75,Open,M,,,,,,-125,-130,135,135,,,,,,,135,B,Raw,Yes
4,Oleksandr Akhtirskiy,Олександр Ахтирський,1992-09-12,74.5,75,Open,M,,,,,,127.5,135,,135,,,,,,,135,B,Raw,Yes
5,Oleg Chornoguz,Олег Чорногуз,1981-03-02,75,75,Open,M,,,,,,130,-135,-135,130,,,,,,,130,B,Raw,Yes
6,Andriy Tsitson,Андрій Цицонь,1983-03-31,73.9,75,Open,M,,,,,,125,-130,-130,125,,,,,,,125,B,Raw,Yes
7,Roman Makarenko,Роман Макаренко,1988-04-29,74.15,75,Open,M,,,,,,-125,125,-135,125,,,,,,,125,B,Raw,Yes
DQ,Oleg Boyko,Олег Бойко,1986-08-10,74.3,75,Open,M,,,,,,-145,,,,,,,,,,,B,Raw,Yes
1,Ruslan Ranyuk,Руслан Ранюк,1996-08-26,82,82.5,Open,M,,,,,,-140,145,150,150,,,,,,,150,B,Raw,Yes
2,Vitaliy Rudyuk,Віталій Рудюк,1993-04-11,81.7,82.5,Open,M,,,,,,135,140,-145,140,,,,,,,140,B,Raw,Yes
3,Ovlaguli Khudayberdiev,Овлагули Худайбердієв,1987-01-22,79.3,82.5,Open,M,,,,,,-120,-127.5,127.5,127.5,,,,,,,127.5,B,Raw,Yes
4,Timur Dovzhenko,Тимур Довженко,1989-01-02,79.6,82.5,Open,M,,,,,,115,-120,-120,115,,,,,,,115,B,Raw,Yes
1,Rovshan Ogli Gadzhiev Vyugar,Ровшан Огли Гаджієв Вюгар,1985-10-11,85.8,90,Open,M,,,,,,147.5,155,157.5,157.5,,,,,,,157.5,B,Raw,Yes
2,Oleksiy Vasyanovich,Олексій Васянович,1994-03-24,88.5,90,Open,M,,,,,,140,147.5,152.5,152.5,,,,,,,152.5,B,Raw,Yes
3,Maksim Mamonov,Максим Мамонов,1988-08-03,83.9,90,Open,M,,,,,,145,-152.5,-152.5,145,,,,,,,145,B,Raw,Yes
4,V'yacheslav Boroday,В'ячеслав Бородай,1992-01-28,88.7,90,Open,M,,,,,,-142.5,-142.5,145,145,,,,,,,145,B,Raw,Yes
5,Evgeniy Gorbatiy,Євгеній Горбатий,1993-06-10,89.6,90,Open,M,,,,,,-140,140,-152.5,140,,,,,,,140,B,Raw,Yes
6,Andriy Vinogradov,Андрій Виноградов,1986-01-28,89,90,Open,M,,,,,,120,-132.5,-132.5,120,,,,,,,120,B,Raw,Yes
DQ,Oleksandr Karvas,Олександр Карвась,1985-10-11,88.2,90,Open,M,,,,,,-170,-170,-170,,,,,,,,,B,Raw,Yes
DD,Sergiy Kovtun,Сергій Ковтун,1995-05-07,88.2,90,Open,M,,,,,,170,175,-177.5,175,,,,,,,,B,Raw,Yes
1,Sergiy Shepel,Сергій Шепель,1983-03-28,96.6,100,Open,M,,,,,,175,185,190,190,,,,,,,190,B,Raw,Yes
2,Andriy Kosyak,Андрій Косяк,1992-12-29,98.05,100,Open,M,,,,,,180,190,-192.5,190,,,,,,,190,B,Raw,Yes
3,Sergiy Nekh,Сергій Нех,1994-09-13,99,100,Open,M,,,,,,167.5,175,-180,175,,,,,,,175,B,Raw,Yes
4,Vadim Bondar,Вадим Бондар,1980-05-12,98.8,100,Open,M,,,,,,155,162.5,170,170,,,,,,,170,B,Raw,Yes
5,Dmitro Pronevich,Дмитро Проневич,1975-10-27,91.7,100,Open,M,,,,,,160,-170,-170,160,,,,,,,160,B,Raw,Yes
6,Valentin Litvin,Валентин Литвин,1992-08-26,96.9,100,Open,M,,,,,,150,-157.5,157.5,157.5,,,,,,,157.5,B,Raw,Yes
7,Evgeniy Tkachenko #2,Євгеній Ткаченко,1993-09-07,96.6,100,Open,M,,,,,,142.5,147.5,152.5,152.5,,,,,,,152.5,B,Raw,Yes
8,V'yacheslav Vlasyuk #2,В'ячеслав Власюк,1989-02-04,97.6,100,Open,M,,,,,,120,125,-130,125,,,,,,,125,B,Raw,Yes
1,Dmitro Berest,Дмитро Берест,1985-07-02,109.3,110,Open,M,,,,,,215,-220,-220,215,,,,,,,215,B,Raw,Yes
2,Maksim Petrenko,Максим Петренко,1987-07-06,108.7,110,Open,M,,,,,,190,195,200,200,,,,,,,200,B,Raw,Yes
3,Sergiy Radchenko,Сергій Радченко,1989-03-27,108.85,110,Open,M,,,,,,170,180,-195,180,,,,,,,180,B,Raw,Yes
4,Maksim Vlasov,Максим Власов,1989-05-13,104.3,110,Open,M,,,,,,155,162.5,167.5,167.5,,,,,,,167.5,B,Raw,Yes
5,V'yacheslav Bobir,В'ячеслав Бобир,1980-01-11,107.2,110,Open,M,,,,,,140,-147.5,-147.5,140,,,,,,,140,B,Raw,Yes
6,Yaroslav Grishchuk,Ярослав Грищук,2002-02-20,106.2,110,Open,M,,,,,,125,-127.5,-127.5,125,,,,,,,125,B,Raw,Yes
1,Roman Radchuk,Роман Радчук,1989-08-30,113.4,125,Open,M,,,,,,130,140,150,150,,,,,,,150,B,Raw,Yes
DQ,Evgen Rudenko,Євген Руденко,1978-05-07,74,75,Masters 40-49,M,,,,,,-125,,,,,,,,,,,B,Raw,Yes
1,Ruslan Abbasov,Руслан Аббасов,1974-07-07,89.2,90,Masters 40-49,M,,,,,,160,-170,-170,160,,,,,,,160,B,Raw,Yes
2,Oleksandr Denisov #2,Олександр Денисов,1972-12-05,88.2,90,Masters 40-49,M,,,,,,135,-140,,135,,,,,,,135,B,Raw,Yes
3,Volodimir Maer,Володимир Маєр,1976-09-22,89.4,90,Masters 40-49,M,,,,,,95,100,105,105,,,,,,,105,B,Raw,Yes
1,Dmitro Pronevich,Дмитро Проневич,1975-10-27,91.7,100,Masters 40-49,M,,,,,,160,-170,-170,160,,,,,,,160,B,Raw,Yes
2,Yuriy Stetsenko,Юрій Стеценко,1975-09-06,96.3,100,Masters 40-49,M,,,,,,120,125,130,130,,,,,,,130,B,Raw,Yes
3,Viktor Dergay,Віктор Дергай,1976-08-27,97.5,100,Masters 40-49,M,,,,,,100,-102.5,-102.5,100,,,,,,,100,B,Raw,Yes
1,Sergiy Danilenko,Сергій Даниленко,1977-10-27,105.2,110,Masters 40-49,M,,,,,,145,150,-152.5,150,,,,,,,150,B,Raw,Yes
1,Yakiv Goldenberg,Яків Гольденберг,1964-01-06,74.5,75,Masters 50-59,M,,,,,,140,150,152.5,152.5,,,,,,,152.5,B,Raw,Yes
1,Yuriy Digtyar,Юрій Дігтяр,1962-09-20,88.3,90,Masters 50-59,M,,,,,,127.5,-132.5,,127.5,,,,,,,127.5,B,Raw,Yes
1,Mikola Samonov,Микола Самонов,1963-08-04,98.7,100,Masters 50-59,M,,,,,,-125,-125,125,125,,,,,,,125,B,Raw,Yes
1,Viktor Stefanov,Віктор Стефанов,1948-11-02,100.8,110,Masters 70-79,M,,,,,,90,100,-105,100,,,,,,,100,B,Raw,Yes
1,Anastasiya Stetsenko,Анастасія Стеценко,2003-02-21,68.35,75,Teen 16-17,F,,,,,,57.5,62.5,-65,62.5,,,,,,,62.5,B,Raw,Yes
1,Olga Kvyatkovska,Ольга Квятковська,1993-03-03,49.2,52,Open,F,,,,,,50,52.5,-55,52.5,,,,,,,52.5,B,Raw,Yes
2,Olena Valegova,Олена Валегова,1987-05-01,50.86,52,Open,F,,,,,,52.5,-57.5,-57.5,52.5,,,,,,,52.5,B,Raw,Yes
1,Nataliya Sokurenko,Наталія Сокуренко,1981-01-12,59.92,60,Open,F,,,,,,70,-75,-75,70,,,,,,,70,B,Raw,Yes
2,Nataliya Kasperska,Наталія Касперська,1981-08-23,59.48,60,Open,F,,,,,,50,-55,55,55,,,,,,,55,B,Raw,Yes
3,Tetyana Dzherelyuk,Тетяна Джерелюк,1983-07-08,59.62,60,Open,F,,,,,,52.5,-57.5,-57.5,52.5,,,,,,,52.5,B,Raw,Yes
1,Irina Ligotska,Ірина Лигоцька,1981-06-20,66.9,67.5,Open,F,,,,,,-60,70,75,75,,,,,,,75,B,Raw,Yes
2,Oksana Ostroushko,Оксана Остроушко,1983-04-26,62.05,67.5,Open,F,,,,,,65,70,-75,70,,,,,,,70,B,Raw,Yes
1,Yuriy Kukhar,Юрій Кухар,1982-08-02,63.2,67.5,Open,M,,,,,,110,115,-120,115,,,,,,,115,B,Raw,No
1,Maksim Mutskiy,Максим Муцький,1986-04-14,78,82.5,Open,M,,,,,,140,152.5,-157.5,152.5,,,,,,,152.5,B,Raw,No
2,Dmitro Shpak,Дмитро Шпак,1991-11-03,81.15,82.5,Open,M,,,,,,130,-140,140,140,,,,,,,140,B,Raw,No
1,Yaroslav Podvorchanskiy,Ярослав Подворчанський,1991-12-21,88.7,90,Open,M,,,,,,190,195,-200,195,,,,,,,195,B,Raw,No
2,Andriy Kotovenko,Андрій Котовенко,1983-01-16,88.4,90,Open,M,,,,,,160,165,-170,165,,,,,,,165,B,Raw,No
1,Oleksiy Bronishevskiy,Олексій Бронішевський,1988-03-26,92.6,100,Open,M,,,,,,215,220,-225,220,,,,,,,220,B,Raw,No
1,Evgeniy Rudnik,Євгеній Руднік,1978-03-01,111.2,125,Open,M,,,,,,205,220,-230,220,,,,,,,220,B,Raw,No
2,Maksim Ribalka,Максим Рибалка,1993-09-28,113.9,125,Open,M,,,,,,195,200,-202.5,200,,,,,,,200,B,Raw,No
3,Dmitro Levashov #1,Дмитро Лєвашов,1992-06-07,122.6,125,Open,M,,,,,,180,-190,-190,180,,,,,,,180,B,Raw,No
1,Dmitro Kravchinskiy,Дмитро Кравчинський,1982-05-19,128.25,140,Open,M,,,,,,195,205,210,210,,,,,,,210,B,Raw,No
2,Nazar Kozub,Назар Козуб,1993-08-17,130.45,140,Open,M,,,,,,155,167.5,175,175,,,,,,,175,B,Raw,No
1,Sergiy Zakharov,Сергій Захаров,1977-12-17,97.9,100,Masters 40-49,M,,,,,,155,-162.5,-162.5,155,,,,,,,155,B,Raw,No
1,Andriy Shlyama,Андрій Шляма,1976-04-20,105.4,110,Masters 40-49,M,,,,,,140,160,175,175,,,,,,,175,B,Raw,No
1,Evgeniy Rudnik,Євгеній Руднік,1978-03-01,111.2,125,Masters 40-49,M,,,,,,205,220,-230,220,,,,,,,220,B,Raw,No
1,Dmitro Kosenko,Дмитро Косенко,1979-07-27,135.7,140,Masters 40-49,M,,,,,,205,215,-220,215,,,,,,,215,B,Raw,No
1,Adelaida Poddueva,Аделаїда Поддуєва,1989-10-12,66.2,67.5,Open,F,,,,,,95,100,-102.5,100,,,,,,,100,B,Raw,No
1,Renata Ignatova,Рената Ігнатова,2004-11-05,67.3,67.5,Teen 13-15,F,,,,,,75,82.5,-90,82.5,,,,,,,82.5,B,Unlimited,Yes
1,Maksim Zubarev #2,Максим Зубарєв,1982-06-22,114.7,100+,Open,M,,,,,,210,-225,,210,,,,,,,210,B,Unlimited,No
DQ,Adelaida Poddueva,Аделаїда Поддуєва,1989-10-12,66.2,67.5,Open,F,,,,,,-142.5,-142.5,-142.5,,,,,,,,,B,Unlimited,No
1,Zhaneta Shostak,Жанета Шостак,1972-07-26,67.5,67.5,Open,F,,,,,,75,85,90,90,,,,,,,90,B,Unlimited,No
1,Maksim Chornenko,Максим Чорненко,2007-11-07,34.6,44,Youth,M,,,,,,,,,,,60,67.5,-75,67.5,,67.5,D,Raw,Yes
1,Dmitro Repetukha,Дмитро Репетуха,2006-02-28,45.7,48,Teen 13-15,M,,,,,,,,,,,90,95,100,100,,100,D,Raw,Yes
1,Oleksandr Logvin,Олександр Логвин,2001-03-06,54.3,56,Teen 18-19,M,,,,,,,,,,,150,155,-160,155,,155,D,Raw,Yes
1,Andriy Raychuk,Андрій Райчук,2001-03-03,72.3,75,Teen 18-19,M,,,,,,,,,,,185,200,-207.5,200,,200,D,Raw,Yes
1,Yaroslav Slutskiy,Ярослав Слуцький,2001-01-24,80.4,82.5,Teen 18-19,M,,,,,,,,,,,170,182.5,190,190,,190,D,Raw,Yes
1,Oleksandr Burmak,Олександр Бурмак,1999-05-26,73.9,75,Juniors 20-23,M,,,,,,,,,,,217.5,222.5,-227.5,222.5,,222.5,D,Raw,Yes
1,Vladislav Prozorovskiy,Владислав Прозоровський,1998-06-02,79.35,82.5,Juniors 20-23,M,,,,,,,,,,,165,180,195,195,,195,D,Raw,Yes
1,Vasil Ivanochko,Василь Іваночко,1996-01-02,85.95,90,Juniors 20-23,M,,,,,,,,,,,230,250,-265,250,,250,D,Raw,Yes
1,Dmitro Nikolaev,Дмитро Ніколаєв,1996-09-11,97.4,100,Juniors 20-23,M,,,,,,,,,,,280,300,310,310,,310,D,Raw,Yes
1,Oleksiy Bibik,Олексій Бибик,1989-05-10,59.2,60,Open,M,,,,,,,,,,,205,215,-227.5,215,,215,D,Raw,Yes
1,Sergiy Kalchuk,Сергій Кальчук,1989-06-29,65.8,67.5,Open,M,,,,,,,,,,,140,160,,160,,160,D,Raw,Yes
2,Oleksandr Moroz,Олександр Мороз,1994-02-17,66.35,67.5,Open,M,,,,,,,,,,,-145,150,160,160,,160,D,Raw,Yes
1,Oleg Zhuchkov,Олег Жучков,1994-03-18,74.9,75,Open,M,,,,,,,,,,,255,265,271,271,,271,D,Raw,Yes
2,Valentin Gontar,Валентин Гонтар,1987-09-26,75,75,Open,M,,,,,,,,,,,257.5,265,-270.5,265,,265,D,Raw,Yes
3,Dmitro Girnik,Дмитро Гірник,1982-04-22,71.7,75,Open,M,,,,,,,,,,,175,190,-207.5,190,,190,D,Raw,Yes
1,Dmitro Gultyaev,Дмитро Гультяєв,1995-01-20,82.25,82.5,Open,M,,,,,,,,,,,-155,165,175,175,,175,D,Raw,Yes
1,Oleksandr Drobilko,Олександр Дробілко,1972-11-13,87.15,90,Open,M,,,,,,,,,,,242.5,251,252.5,252.5,,252.5,D,Raw,Yes
2,Sergiy Timchenko,Сергій Тимченко,1989-12-18,87.4,90,Open,M,,,,,,,,,,,210,220,-225,220,,220,D,Raw,Yes
1,Sergiy Vdovichenko,Сергій Вдовиченко,1984-05-21,95.25,100,Open,M,,,,,,,,,,,270,285,300,300,,300,D,Raw,Yes
2,Stanislav Shubin,Станіслав Шубін,1992-06-30,97.9,100,Open,M,,,,,,,,,,,250,265,-275,265,,265,D,Raw,Yes
3,Oleksiy Zhadko,Олексій Жадько,1991-03-30,99.7,100,Open,M,,,,,,,,,,,220,240,-242.5,240,,240,D,Raw,Yes
4,Igor Lutsenko,Ігор Луценко,1987-09-05,97.5,100,Open,M,,,,,,,,,,,220,230,-240,230,,230,D,Raw,Yes
5,Oleksandr Slobodyanik,Олександр Слободяник,1986-12-26,97.9,100,Open,M,,,,,,,,,,,-230,230,-240,230,,230,D,Raw,Yes
1,Volodimir Ogloblin,Володимир Оглоблін,1965-08-15,107,110,Open,M,,,,,,,,,,,270,277.5,-282.5,277.5,,277.5,D,Raw,Yes
2,Sergiy Radchenko,Сергій Радченко,1989-03-27,108.85,110,Open,M,,,,,,,,,,,250,-265,-265,250,,250,D,Raw,Yes
3,Eduard Gusev,Едуард Гусєв,1990-07-27,101,110,Open,M,,,,,,,,,,,225,-240,-240,225,,225,D,Raw,Yes
1,Vladislav Evchenko,Владислав Євченко,1992-03-24,111.9,125,Open,M,,,,,,,,,,,265,280,290,290,,290,D,Raw,Yes
2,Roman Radchuk,Роман Радчук,1989-08-30,113.4,125,Open,M,,,,,,,,,,,180,200,210,210,,210,D,Raw,Yes
1,Oleksandr Drobilko,Олександр Дробілко,1972-11-13,87.15,90,Masters 40-49,M,,,,,,,,,,,242.5,251,252.5,252.5,,252.5,D,Raw,Yes
2,Viktor Poshtarenko,Віктор Поштаренко,1970-02-06,88.9,90,Masters 40-49,M,,,,,,,,,,,210,-230,-230,210,,210,D,Raw,Yes
1,Yuriy Stetsenko,Юрій Стеценко,1975-09-06,96.3,100,Masters 40-49,M,,,,,,,,,,,190,205,210,210,,210,D,Raw,Yes
1,Volodimir Andreev,Володимир Андреєв,1973-11-14,106.2,110,Masters 40-49,M,,,,,,,,,,,240,260,267.5,267.5,,267.5,D,Raw,Yes
2,Sergiy Danilenko,Сергій Даниленко,1977-10-27,105.2,110,Masters 40-49,M,,,,,,,,,,,210,225,235,235,,235,D,Raw,Yes
1,Volodimir Ogloblin,Володимир Оглоблін,1965-08-15,107,110,Masters 50-59,M,,,,,,,,,,,270,277.5,-282.5,277.5,,277.5,D,Raw,Yes
1,Varvara Pustilnik,Варвара Пустільнік,2003-12-17,55.16,56,Teen 13-15,F,,,,,,,,,,,117.5,-127.5,-127.5,117.5,,117.5,D,Raw,Yes
1,Anastasiya Stetsenko,Анастасія Стеценко,2003-02-21,68.35,75,Teen 16-17,F,,,,,,,,,,,-115,115,,115,,115,D,Raw,Yes
1,Yuliya Kolyagina,Юлія Колягіна,1999-08-07,51.82,52,Juniors 20-23,F,,,,,,,,,,,105,-115,115,115,,115,D,Raw,Yes
1,Olena Valegova,Олена Валегова,1987-05-01,50.86,52,Open,F,,,,,,,,,,,130,137.5,142.5,142.5,,142.5,D,Raw,Yes
1,Marina Matvienko,Марина Матвієнко,1989-03-17,58.84,60,Open,F,,,,,,,,,,,140,150,160,160,,160,D,Raw,Yes
2,Nataliya Sokurenko,Наталія Сокуренко,1981-01-12,59.92,60,Open,F,,,,,,,,,,,145,-155,-155,145,,145,D,Raw,Yes
3,Tetyana Dzherelyuk,Тетяна Джерелюк,1983-07-08,59.62,60,Open,F,,,,,,,,,,,120,130,-140,130,,130,D,Raw,Yes
1,Oksana Ostroushko,Оксана Остроушко,1983-04-26,62.05,67.5,Open,F,,,,,,,,,,,130,140,150,150,,150,D,Raw,Yes
2,Anna Vakarenko,Анна Вакаренко,1990-07-11,65.65,67.5,Open,F,,,,,,,,,,,120,-127.5,-127.5,120,,120,D,Raw,Yes
1,Vita Rudakova,Віта Рудакова,1980-02-03,72.1,75,Open,F,,,,,,,,,,,145,-160,-160,145,,145,D,Raw,Yes
1,Svitlana Kravchenko,Світлана Кравченко,1971-05-11,54.7,56,Masters 40-49,F,,,,,,,,,,,105,115,-125,115,,115,D,Raw,Yes
1,Mikola Belozorov,Микола Белозьоров,1982-12-16,74,75,Open,M,,,,,,,,,,,225,-235,240,240,,240,D,Raw,No
1,Radion Shovkun,Радіон Шовкун,1981-12-15,92.7,100,Open,M,,,,,,,,,,,230,245,255,255,,255,D,Raw,No
2,Eduard Kachur,Едуард Качур,1992-10-07,98.3,100,Open,M,,,,,,,,,,,215,240,252.5,252.5,,252.5,D,Raw,No
1,Zhorzh Togola,Жорж Тогола,1989-04-05,109.1,110,Open,M,,,,,,,,,,,340,-352.5,,340,,340,D,Raw,No
2,Oleg Kovalchuk,Олег Ковальчук,1987-06-15,105.1,110,Open,M,,,,,,,,,,,270,282.5,-290,282.5,,282.5,D,Raw,No
1,Evgeniy Rudnik,Євгеній Руднік,1978-03-01,111.2,125,Open,M,,,,,,,,,,,300,-310,,300,,300,D,Raw,No
DQ,Dmitro Levashov #1,Дмитро Лєвашов,1992-06-07,122.6,125,Open,M,,,,,,,,,,,-290,-290,,,,,D,Raw,No
1,Dmitro Kravchinskiy,Дмитро Кравчинський,1982-05-19,128.25,140,Open,M,,,,,,,,,,,300,315,-325,315,,315,D,Raw,No
2,Nazar Kozub,Назар Козуб,1993-08-17,130.45,140,Open,M,,,,,,,,,,,270,-310,-320,270,,270,D,Raw,No
1,Sergiy Zakharov,Сергій Захаров,1977-12-17,97.9,100,Masters 40-49,M,,,,,,,,,,,55,,,55,,55,D,Raw,No
1,Oleg Kovbasa,Олег Ковбаса,1975-02-06,100.3,110,Masters 40-49,M,,,,,,,,,,,150,200,220,220,,220,D,Raw,No
1,Evgeniy Rudnik,Євгеній Руднік,1978-03-01,111.2,125,Masters 40-49,M,,,,,,,,,,,300,-310,,300,,300,D,Raw,No
1,Volodimir Ivasyutin,Володимир Івасютин,1995-07-27,70.5,75,Open,M,,,,,,,,,,,200,210,-225,210,,210,D,Single-ply,Yes
1,Sergiy Kolesnik,Сергій Колесник,1963-01-03,98.8,100,Masters 50-59,M,,,,,,,,,,,230,245,255,255,,255,D,Single-ply,No
