Sex,Name,CyrillicName,BodyweightKg,Squat1Kg,Squat2Kg,Squat3Kg,Best3SquatKg,Squat4Kg,Bench1Kg,Bench2Kg,Bench3Kg,Best3BenchKg,Bench4Kg,Deadlift1Kg,Deadlift2Kg,Deadlift3Kg,Best3DeadliftKg,Deadlift4Kg,TotalKg,WeightClassKg,Event,Equipment,Tested,Division,BirthDate,Place
F,Tatyana Kislitsyna,Татьяна Кислицына,52,50,60,-75,60,,50,-52.5,-52.5,50,,90,100,105,105,,215,52,SBD,Wraps,No,Pro Open,1981-02-01,2
F,Irina Zheleva,Ирина Желева,74.5,85,95,100,100,,50,55,60,60,,95,105,110,110,,270,75,SBD,Wraps,No,Pro Teen 16-17,2002-07-30,1
M,Vladimir Lazarenko,Владимир Лазаренко,80,140,150,160,160,,115,122.5,127.5,127.5,,180,-187.5,187.5,187.5,,475,82.5,SBD,Wraps,No,Pro Open,1984-04-13,1
M,Daniil Tychkov,Даниил Тычков,78.7,-120,120,-135,120,,95,-105,-105,95,,165,175,185,185,,400,82.5,SBD,Wraps,No,Pro Open,1991-03-16,2
M,Albert Agarizaev,Альберт Агаризаев,81.5,180,192.5,-197.5,192.5,,110,120,-122.5,120,,190,202.5,-207.5,202.5,,515,82.5,SBD,Wraps,No,Pro Masters 40-44,1974-10-08,1
M,Pavel Amanatov,Павел Аманатов,85.6,140,160,170,170,,95,105,-110,105,,160,-180,,160,,435,90,SBD,Wraps,No,Pro Teen 16-17,2002-03-29,1
F,Tatyana Kislitsyna,Татьяна Кислицына,52,50,60,-75,60,,50,-52.5,-52.5,50,,90,100,105,105,,215,52,SBD,Wraps,No,Pro Open,1981-02-01,3
F,Darya Shchupets,Дарья Щупец,51.1,100,-115,115,115,,47.5,52.5,-55,52.5,,105,110,,110,,277.5,52,SBD,Wraps,No,Pro Open,1993-04-11,1
M,Dmitriy Kurkin,Дмитрий Куркин,68.1,150,160,-170,160,,100,-110,-110,100,,180,-190,,180,,440,75,SBD,Wraps,No,Pro Teen 18-19,2001-03-27,1
M,Islam Kamalov,Ислам Камалов,73.6,-150,150,-170,150,,95,-105,-105,95,,170,185,195,195,,440,75,SBD,Wraps,No,Pro Open,1994-03-07,2
M,Aleksandr Loskutov,Александр Лоскутов,99.7,220,-230,,220,,145,150,-155,150,,-245,245,255,255,,625,100,SBD,Wraps,No,Pro Open,1983-04-20,1
M,Arman Kulibaev,Арман Кулибаев,74.9,210,220,235,235,,145,155,-160,155,,205,210,215,215,,605,75,SBD,Single-ply,No,Pro Open,1983-01-18,1
F,Olga Potapova,Ольга Потапова,57.7,,,,,,75,80,82.5,82.5,,,,,,,82.5,60,B,Raw,No,Pro Open,1980-01-23,1
F,Daredzhan Muteva,Дареджан Мутьева,64.8,,,,,,50,52.5,-55,52.5,,,,,,,52.5,67.5,B,Raw,No,Pro Masters 40-44,1979-02-12,1
F,Yuliya Dovnar,Юлия Довнар,68.3,,,,,,45,-50,-50,45,,,,,,,45,75,B,Raw,No,Pro Open,1995-01-30,7
F,Ekaterina Zvonkova,Екатерина Звонкова,99.3,,,,,,55,57.5,62.5,62.5,,,,,,,62.5,90+,B,Raw,No,Pro Open,1987-09-06,6
M,Vadim Minko,Вадим Минко,67.2,,,,,,137.5,142.5,-145,142.5,,,,,,,142.5,67.5,B,Raw,No,Pro Juniors 20-23,1998-07-04,1
M,Aleksey Strashko,Алексей Страшко,66.8,,,,,,125,-130,,125,,,,,,,125,67.5,B,Raw,No,Pro Open,1979-11-16,1
M,Aleksandr Blokhin,Александр Блохин,72,,,,,,120,125,-130,125,,,,,,,125,75,B,Raw,No,Pro Open,1995-02-06,4
M,Ivan Trusov,Иван Трусов,73.4,,,,,,105,117.5,-120,117.5,,,,,,,117.5,75,B,Raw,No,Pro Open,1982-01-19,5
M,Igor Surogin,Игорь Сурогин,74.4,,,,,,-112.5,-115,117.5,117.5,,,,,,,117.5,75,B,Raw,No,Pro Open,1988-09-13,6
M,Ilya Chernov,Илья Чернов,74,,,,,,-112.5,-112.5,-112.5,,,,,,,,,75,B,Raw,No,Pro Open,1992-10-20,DQ
M,Viktor Melentev,Виктор Мелентьев,81.3,,,,,,112.5,115,120,120,,,,,,,120,82.5,B,Raw,No,Pro Juniors 20-23,1996-08-04,1
M,Roman Kotlyarov,Роман Котляров,80.4,,,,,,122.5,127.5,130,130,,,,,,,130,82.5,B,Raw,No,Pro Open,1983-11-01,2
M,Dmitriy Kozlovtsev,Дмитрий Козловцев,80.4,,,,,,125,127.5,-130,127.5,,,,,,,127.5,82.5,B,Raw,No,Pro Open,1990-06-21,3
M,Vitaliy Loktionov,Виталий Локтионов,79.9,,,,,,105,112.5,-127.5,112.5,,,,,,,112.5,82.5,B,Raw,No,Pro Open,1987-07-21,5
M,Sergey Likharev,Сергей Лихарев,82,,,,,,-105,105,-112.5,105,,,,,,,105,82.5,B,Raw,No,Pro Open,1988-12-03,6
M,Aleksey Vasilyaka,Алексей Василяка,82,,,,,,130,135,-137.5,135,,,,,,,135,82.5,B,Raw,No,Pro Masters 45-49,1973-12-11,1
M,Dmitriy Fakhretdinov,Дмитрий Фахретдинов,85,,,,,,180,190,-195,190,,,,,,,190,90,B,Raw,No,Pro Open,1992-10-22,1
M,Evgeniy Poltavskiy,Евгений Полтавский,88.9,,,,,,155,165,175,175,,,,,,,175,90,B,Raw,No,Pro Open,1994-12-17,2
M,Vasiliy Kondratov,Василий Кондратов,89.5,,,,,,162.5,170,-175,170,,,,,,,170,90,B,Raw,No,Pro Open,1987-09-13,4
M,Albert Palyan,Альберт Палян,88.4,,,,,,132.5,137.5,142.5,142.5,,,,,,,142.5,90,B,Raw,No,Pro Open,1990-02-15,5
M,Pavel Lipkovskiy,Павел Липковский,88.3,,,,,,-142.5,-142.5,-142.5,,,,,,,,,90,B,Raw,No,Pro Open,1983-09-01,DQ
M,Ruslan Leshchenko,Руслан Лещенко,88.8,,,,,,115,125,-132.5,125,,,,,,,125,90,B,Raw,No,Pro Masters 45-49,1973-06-28,1
M,Aleksandr Galanov,Александр Галанов,98.2,,,,,,135,140,145,145,,,,,,,145,100,B,Raw,No,Pro Open,1992-04-02,3
M,Dmitriy Troshin,Дмитрий Трошин,98.7,,,,,,-125,130,-135,130,,,,,,,130,100,B,Raw,No,Pro Open,1986-08-29,4
M,Vladimir Pavlov,Владимир Павлов,89.8,,,,,,155,162.5,170,170,,,,,,,170,90,B,Unlimited,No,Pro Open,1987-11-07,1
M,Artur Dyakin,Артур Дякин,88.5,,,,,,175,185,-190,185,,,,,,,185,90,B,Unlimited,No,Pro Masters 50-54,1966-08-02,1
M,Ayrat Sufiyanov,Айрат Суфиянов,65.8,,,,,,-185,185,,185,,,,,,,185,67.5,B,Single-ply,No,Pro Open,1984-01-01,1
F,Anastasiya Dolgopolova,Анастасия Долгополова,52,,,,,,,,,,,90,100,105,105,,105,52,D,Raw,No,Pro Open,1981-12-21,1
F,Anastasiya Zhdanova,Анастасия Жданова,55.6,,,,,,,,,,,122.5,130,-140,130,,130,56,D,Raw,No,Pro Open,1980-12-11,1
F,Marina Kornienkova,Марина Корниенкова,58.5,,,,,,,,,,,130,140,-147.5,140,,140,60,D,Raw,No,Pro Juniors 20-23,1996-12-16,1
F,Marina Matusevich,Марина Матусевич,58.7,,,,,,,,,,,117.5,135,-150,135,,135,60,D,Raw,No,Pro Open,1988-01-08,1
F,Varsovskaya,Варсовская,57.1,,,,,,,,,,,90,110,,110,,110,60,D,Raw,No,Pro Masters 45-49,1974-06-15,1
F,Ekaterina Zhitnik,Екатерина Житник,65,,,,,,,,,,,105,120,135,135,,135,67.5,D,Raw,No,Pro Open,1988-07-02,1
F,Ekaterina Zvonkova,Екатерина Звонкова,99.3,,,,,,,,,,,115,120,-125,120,,120,90+,D,Raw,No,Pro Open,1987-09-06,1
M,Valeriy Kuznetsov #6,Валерій Кузнєцов,54.2,,,,,,,,,,,70,100,125,125,,125,56,D,Raw,No,Pro Masters 50-54,1965-03-12,1
M,Ruslan Slonov,Руслан Слонов,75,,,,,,,,,,,225,230,-235,230,,230,75,D,Raw,No,Pro Open,1989-11-07,1
M,Ilya Zozin,Илья Зозин,73.6,,,,,,,,,,,-170,177.5,-202.5,177.5,,177.5,75,D,Raw,No,Pro Open,1985-07-05,2
M,Vladimir Maletin,Владимир Малетин,82,,,,,,,,,,,150,160,-170,160,,160,82.5,D,Raw,No,Pro Teen 16-17,2001-11-01,1
M,Aleksey Khekalo,Алексей Хекало,81.7,,,,,,,,,,,230,-240,,230,,230,82.5,D,Raw,No,Pro Open,2000-08-28,1
M,Evgeniy Chistyakov,Евгений Чистяков,80.7,,,,,,,,,,,180,205,222.5,222.5,,222.5,82.5,D,Raw,No,Pro Open,1993-04-11,2
M,Vladimir Lazarenko,Владимир Лазаренко,80,,,,,,,,,,,180,-187.5,187.5,187.5,,187.5,82.5,D,Raw,No,Pro Open,1984-04-13,3
M,Evgeniy Poltavskiy,Евгений Полтавский,88.9,,,,,,,,,,,210,222.5,235,235,,235,90,D,Raw,No,Pro Open,1994-12-17,1
M,Artur Dyakin,Артур Дякин,88.5,,,,,,,,,,,180,190,200,200,,200,90,D,Raw,No,Pro Masters 50-54,1966-08-02,1
M,David Dziov,Давид Дзиов,101.6,,,,,,,,,,,250,-260,-260,250,,250,110,D,Raw,No,Pro Open,1989-05-24,2
M,Yuriy Cherpakov,Юрий Черпаков,106.1,,,,,,,,,,,130,-145,,130,,130,110,D,Raw,No,Pro Masters 45-49,1970-01-01,1
M,Aleksandr Maltsev,Александр Мальцев,96.5,,,,,,,,,,,190,202.5,210,210,,210,100,D,Raw,No,Pro Masters 40-44,1978-04-04,1
M,Maksim Shiryaev,Максим Ширяев,72.7,,,,,,,,,,,190,-205,-205,190,,190,75,D,Single-ply,No,Pro Open,1989-07-14,1
M,Dmitriy Kislitsyn,Дмитрий Кислицын,109,170,185,200,200,,150,-160,-160,150,,240,265,-270,265,,615,110,SBD,Wraps,No,Pro Open,1980-11-17,1
F,Mariya Tolmacheva,Мария Толмачева,75,-70,-70,70,70,,35,40,-42.5,40,,90,-100,100,100,,210,75,SBD,Wraps,No,Pro Open,1980-08-14,1
M,Ivan Afanasev,Иван Афанасьев,73.7,-180,180,200,200,,150,165,170,170,,210,230,-245,230,,600,75,SBD,Wraps,No,Pro Open,1987-01-13,1
M,Dmitriy Pys,Дмитрий Пысь,125.3,300,310,,310,,190,200,210,210,,300,310,,310,,830,140,SBD,Wraps,No,Pro Open,1986-05-04,1
M,Vladislav Grebennikov,Владислав Гребенников,76.6,110,125,130,130,,85,-87.5,-90,85,,-150,150,,150,,365,82.5,SBD,Wraps,No,Pro Teen 16-17,2003-06-05,1
M,Mikhail Koptev,Михаил Коптев,108.1,320,340,350,350,,170,180,,180,,-320,-320,-320,,,,110,SBD,Wraps,No,Pro Open,1991-06-17,DQ
M,Yuriy Cherpakov,Юрий Черпаков,106.1,-125,-140,-140,,,-85,,,,,-130,,,,,,110,SBD,Wraps,No,Pro Masters 45-49,1970-01-01,DQ
F,Svetlana Maletskaya,Светлана Малецкая,74.1,150,160,170,170,,140,-150,-150,140,,150,-157.5,,150,,460,75,SBD,Unlimited,No,Pro Open,1983-06-04,1
M,Sergey Starodubskiy,Сергей Стародубский,111.5,310,325,342.5,342.5,,240,255,-265,255,,260,302.5,,302.5,,900,125,SBD,Multi-ply,No,Pro Masters 40-44,1977-12-20,1
F,Darya Bgavina,Дарья Бгавина,51.6,,,,,,65,67.5,70,70,,,,,,,70,52,B,Raw,No,Pro Open,1995-04-27,1
F,Aleksandra Gorbacheva,Александра Горбачева,55.8,,,,,,40,45,-47.5,45,,,,,,,45,56,B,Raw,No,Pro Teen 13-15,2004-06-09,1
F,Olga Boychenko,Ольга Бойченко,55.8,,,,,,45,-47.5,-47.5,45,,,,,,,45,56,B,Raw,No,Pro Masters 45-49,1969-10-01,1
F,Oksana Vorotnikova,Оксана Воротникова,59.3,,,,,,80,-90,90,90,,,,,,,90,60,B,Raw,No,Pro Open,1984-10-16,1
F,Ekaterina Kucher,Екатерина Кучер,63.2,,,,,,-42.5,42.5,-45,42.5,,,,,,,42.5,67.5,B,Raw,No,Pro Teen 18-19,1999-12-13,1
M,Radomir Kislitsyn,Радомир Кислицын,42,,,,,,20,25,-30,25,,,,,,,25,52,B,Raw,No,Pro Youth,2009-01-03,1
M,Kirill Duplinskiy,Кирилл Дуплинский,55.3,,,,,,80,-87.5,,80,,,,,,,80,56,B,Raw,No,Pro Teen 18-19,2000-06-27,1
M,Zakhar Bondarenko,Захар Бондаренко,58.8,,,,,,75,85,-95,85,,,,,,,85,60,B,Raw,No,Pro Teen 13-15,2004-10-25,1
M,Nikolay Marchenko,Николай Марченко,60.8,,,,,,65,67.5,-72.5,67.5,,,,,,,67.5,67.5,B,Raw,No,Pro Teen 16-17,2003-07-08,2
M,Mergen Shiganov,Мерген Шиганов,65.5,,,,,,60,62.5,-70,62.5,,,,,,,62.5,67.5,B,Raw,No,Pro Teen 16-17,2002-07-28,3
M,Artem Likhman,Артем Лихман,69.7,,,,,,75,80,-82.5,80,,,,,,,80,75,B,Raw,No,Pro Teen 13-15,2005-12-16,1
M,Ivan Merzlikin,Иван Мерзликин,69.1,,,,,,65,70,-77.5,70,,,,,,,70,75,B,Raw,No,Pro Teen 16-17,2002-07-24,1
M,Gevorg Gabrielyan,Геворг Габриелян,74.6,,,,,,152.5,160,-162.5,160,,,,,,,160,75,B,Raw,No,Pro Open,1991-01-01,1
M,Dmitriy Aleksandrov,Дмитрий Александров,68.2,,,,,,140,145,,145,,,,,,,145,75,B,Raw,No,Pro Open,1979-12-27,2
M,Valeriy Popov,Валерий Попов,73.2,,,,,,120,135,-142.5,135,,,,,,,135,75,B,Raw,No,Pro Open,1981-10-21,3
M,Vladimir Rybalko,Владимир Рыбалко,80.1,,,,,,150,155,160,160,,,,,,,160,82.5,B,Raw,No,Pro Open,1987-05-04,1
M,Roman Ivanchenko,Роман Иванченко,89.2,,,,,,160,170,-175,170,,,,,,,170,90,B,Raw,No,Pro Open,1989-05-16,3
M,Andrey Bogus,Андрей Богус,89,,,,,,117.5,120,-125,120,,,,,,,120,90,B,Raw,No,Pro Masters 45-49,1971-08-25,2
M,Yuriy Zhoglo,Юрий Жогло,98,,,,,,180,190,-200,190,,,,,,,190,100,B,Raw,No,Pro Open,1990-04-29,1
M,Nikolay Timoshev,Николай Тимошев,99.1,,,,,,190,-195,-195,190,,,,,,,190,100,B,Raw,No,Pro Open,1990-10-14,2
M,Aleksandr Merkulov,Александр Меркулов,96,,,,,,172.5,175,177.5,177.5,,,,,,,177.5,100,B,Raw,No,Pro Masters 40-44,1977-02-02,2
M,Igor Lazarenko,Игорь Лазаренко,98.4,,,,,,160,-165,,160,,,,,,,160,100,B,Raw,No,Pro Masters 45-49,1972-02-03,1
M,Vladimir Zakharov,Владимир Захаров,99.4,,,,,,185,190,-195.5,190,,,,,,,190,100,B,Raw,No,Pro Masters 50-54,1969-05-29,1
M,Mikhail Dadonov,Михаил Дадонов,107.8,,,,,,155,-165,-165,155,,,,,,,155,110,B,Raw,No,Pro Open,1988-01-13,1
M,Ruslan Datly,Руслан Датлы,115.2,,,,,,140,150,152.5,152.5,,,,,,,152.5,125,B,Raw,No,Pro Masters 45-49,1970-06-28,1
M,Andrey Shandruk,Андрей Шандрук,78.8,,,,,,107.5,110,112.5,112.5,,,,,,,112.5,82.5,B,Raw,No,Pro Open,1992-11-26,4
M,Dmitriy Nadzha,Дмитрий Наджа,98.4,,,,,,180,190,,190,,,,,,,190,100,B,Raw,No,Pro Masters 40-44,1975-10-10,1
M,Aleksandr Gnidash,Александр Гнидаш,67,,,,,,60,65,70,70,,,,,,,70,67.5,B,Raw,No,Pro Teen 16-17,2002-04-08,1
F,Darya Bgavina,Дарья Бгавина,51.6,,,,,,100,107.5,110,110,,,,,,,110,52,B,Unlimited,No,Pro Open,1995-04-27,1
F,Svetlana Maletskaya,Светлана Малецкая,74.1,,,,,,140,-150,-150,140,,,,,,,140,75,B,Unlimited,No,Pro Open,1983-06-04,1
F,Yuliya Medvedeva #1,Юлия Медведева,82.2,,,,,,225,240,-255,240,,,,,,,240,82.5,B,Unlimited,No,Pro Open,1979-07-08,1
F,Yuliya Medvedeva #1,Юлия Медведева,82.2,,,,,,225,240,-255,240,,,,,,,240,82.5,B,Unlimited,No,Pro Masters 40-44,1979-07-08,1
M,Nikolay Tsypushkin,Николай Цыпушкин,108.5,,,,,,230,250,-265,250,,,,,,,250,110,B,Unlimited,No,Pro Juniors 20-23,1996-05-17,1
M,Aleksandr Kanaev,Александр Канаев,118.9,,,,,,352.5,370,-380,370,,,,,,,370,125,B,Unlimited,No,Pro Open,1988-08-06,1
M,Vitaliy Sorokotyagin,Виталий Сорокотягин,114.6,,,,,,340,352.5,360,360,,,,,,,360,125,B,Unlimited,No,Pro Open,1981-05-28,2
M,Aleksey Morozov,Алексей Морозов,118,,,,,,280,-305,305,305,,,,,,,305,125,B,Unlimited,No,Pro Masters 40-44,1979-04-11,1
M,Dmitriy Nadzha,Дмитрий Наджа,98.4,,,,,,262.5,-292.5,-292.5,262.5,,,,,,,262.5,100,B,Unlimited,No,Pro Masters 40-44,1975-10-10,1
M,Dmitriy Gorbachev,Дмитрий Горбачев,114.3,,,,,,300,310,-320,310,,,,,,,310,125,B,Single-ply,No,Pro Masters 45-49,1970-03-06,1
F,Anzhelika Serasidi,Анжелика Серасиди,49.2,,,,,,,,,,,47.5,50,62.5,62.5,,62.5,52,D,Raw,No,Pro Open,1993-09-01,2
M,Maksim Sukhobok,Максим Сухобок,66.1,,,,,,,,,,,205,215,-222.5,215,,215,67.5,D,Raw,No,Pro Masters 50-54,1965-01-01,1
M,Andrey Sobol,Андрей Соболь,98.3,,,,,,,,,,,220,230,240,240,,240,100,D,Raw,No,Pro Open,1992-05-14,1
M,Pavel Siryak,Павел Сиряк,109.6,,,,,,,,,,,285,300,-310,300,,300,110,D,Raw,No,Pro Open,1986-06-14,1
M,Mikhail Dadonov,Михаил Дадонов,107.8,,,,,,,,,,,247.5,-260,-260,247.5,,247.5,110,D,Raw,No,Pro Open,1988-01-13,3
M,Aleksan Sanosyan,Алексан Саносян,125,,,,,,,,,,,230,240,-250,240,,240,125,D,Raw,No,Pro Masters 45-49,1970-06-19,1
