Sex,WeightClassKg,EntryDate,Name,BirthDate,Country,Best3BenchKg,Bench4Kg,TotalKg,BodyweightKg,Event,Equipment,Division,Place
F,40,1998-10-19,Jianxin Bian,1974-01-03,China,90,,90,39.15,B,Raw,Open,1
F,40,1998-10-19,Jehan Gharib Abdelaziz,1974-10-29,Egypt,77.5,,77.5,38.65,B,Raw,Open,2
F,40,1998-10-19,Pepsusie Obi,1962-08-03,Nigeria,72.5,,72.5,37.75,B,Raw,Open,3
F,40,1998-10-19,Laura Cerero,1967-08-18,Mexico,65,,65,38.2,B,Raw,Open,4
F,40,1998-10-19,Marie-Paule Huleux,1972-09-02,France,60,,60,38.35,B,Raw,Open,5
F,40,1998-10-19,Jill Kennedy,1971-02-14,USA,60,,60,39.3,B,Raw,Open,6
F,40,1998-10-19,Dalila Tabai,1961-08-11,Tunisia,57.5,,57.5,39.15,B,Raw,Open,7
F,40,1998-10-19,Chen-Yen Huang,1980-04-04,Taiwan,57.5,,57.5,39.15,B,Raw,Open,8
F,40,1998-10-19,Tamara Kulinich,1958-02-28,Ukraine,55,,55,39.85,B,Raw,Open,9
F,40,1998-10-19,Lisa Tuckey,1976-10-06,UK,52.5,,52.5,38,B,Raw,Open,10
F,40,1998-10-19,I-Ping Huang,1959-11-02,Taiwan,50,,50,37.8,B,Raw,Open,11
F,40,1998-10-19,Amnouy Wetwithan,1979-07-18,Thailand,40,,40,39.2,B,Raw,Open,12
F,40,1998-10-19,Abtesam Alsabeh,1963-01-01,Syria,,,,33.85,B,Raw,Open,DQ
F,44,1998-10-19,Fatma Omar,1973-10-17,Egypt,100,,100,41.45,B,Raw,Open,1
F,44,1998-10-19,Valerie Jutand,1967-08-06,France,67.5,,67.5,43.25,B,Raw,Open,2
F,44,1998-10-19,Li-Hua Lu,1970-07-04,Taiwan,67.5,,67.5,43.3,B,Raw,Open,3
F,44,1998-10-19,Saliha Annab,1973-07-19,Algeria,55,,55,42.45,B,Raw,Open,4
F,44,1998-10-19,Pat Parker,1943-06-16,UK,45,,45,41.35,B,Raw,Open,5
F,44,1998-10-19,Xia Zhang,1975-10-29,China,,,,43.6,B,Raw,Open,DQ
F,44,1998-10-19,Manoon Kherd Ngern,1972-06-26,Thailand,,,,44,B,Raw,Open,DQ
F,48,1998-10-20,Abir Ibrahim Aly Nail,1972-08-10,Egypt,95,,95,45.5,B,Raw,Open,1
F,48,1998-10-20,Iyabo Ismaila,1974-12-12,Nigeria,95,,95,47.15,B,Raw,Open,2
F,48,1998-10-20,Zhenling Huo,1970-06-10,China,75,,75,47.3,B,Raw,Open,3
F,48,1998-10-20,Sharon Heath,1957-06-28,UK,72.5,,72.5,46.15,B,Raw,Open,4
F,48,1998-10-20,Anna Oroszova,1963-03-23,Slovakia,65,,65,47.1,B,Raw,Open,5
F,48,1998-10-20,Zuray Marcano,1954-05-26,Venezuela,57.5,,57.5,47.2,B,Raw,Open,6
F,48,1998-10-20,Renata Kopnicka,1978-09-06,Slovakia,50,,50,46.55,B,Raw,Open,7
F,48,1998-10-20,Ampor Srila,1982-04-21,Thailand,50,,50,46.8,B,Raw,Open,8
F,52,1998-10-20,Amalia Pérez Vazquez,1973-07-10,Mexico,105,,105,51.1,B,Raw,Open,1
F,52,1998-10-20,Moekie Grobbelaar,1959-06-18,South Africa,95,,95,50.35,B,Raw,Open,2
F,52,1998-10-20,Taoying Fu,1968-04-06,China,95,,95,51.45,B,Raw,Open,3
F,52,1998-10-20,Sayeda Youssef,1971-11-06,Egypt,90,,90,49.55,B,Raw,Open,4
F,52,1998-10-20,Omolara Oniko,1978-09-18,Nigeria,85,,85,49.35,B,Raw,Open,5
F,52,1998-10-20,Martine Servajean,1958-10-10,France,75,,75,48.9,B,Raw,Open,6
F,52,1998-10-20,Lisa Pudner,1965-07-06,UK,75,,75,49.1,B,Raw,Open,7
F,52,1998-10-20,Somkhoun Anon,1977-10-14,Thailand,70,,70,51.95,B,Raw,Open,8
F,52,1998-10-20,Figueroa Morella,1955-05-19,Venezuela,52.5,,52.5,48.7,B,Raw,Open,9
F,48,1998-10-20,Ilham Oudra,1973-02-10,Morocco,,,,45,B,Raw,Open,DQ
F,56,1998-10-20,Victoria Nneji,1972-06-05,Nigeria,100,,100,53.6,B,Raw,Open,1
F,56,1998-10-20,Yu Zuo,1974-01-05,China,90,,90,54.9,B,Raw,Open,2
F,56,1998-10-20,Tracey Wright,1974-10-09,New Zealand,87.5,,87.5,55.15,B,Raw,Open,3
F,56,1998-10-20,Connie Eisenbraun,1964-09-14,USA,77.5,,77.5,55.65,B,Raw,Open,4
F,56,1998-10-20,Maria Bartosova,1961-01-18,Slovakia,65,,65,54.1,B,Raw,Open,5
F,60,1998-10-20,Mingxia Zhu,1976-10-20,China,92.5,,92.5,58.95,B,Raw,Open,1
F,60,1998-10-20,Catalina Diaz,1964-04-30,Mexico,90,,90,56.95,B,Raw,Open,2
F,60,1998-10-20,Jeannette Thibisay Heredia,1966-09-27,Venezuela,60,,60,58.6,B,Raw,Open,3
F,60,1998-10-20,Kike Ogunbamowo,1970-07-18,Nigeria,,,,59.1,B,Raw,Open,DQ
F,67.5,1998-10-20,Nadia Mohamed Fekry Shokray,1974-07-27,Egypt,105,,105,64.85,B,Raw,Open,1
F,67.5,1998-10-20,Lyudmila Osmanova,1976-03-23,Ukraine,95,,95,60.1,B,Raw,Open,2
F,67.5,1998-10-20,Perla Barcenas,1971-05-13,Mexico,95,,95,63.55,B,Raw,Open,3
F,67.5,1998-10-20,Carmen Rodriguez,1963-10-14,Mexico,92.5,,92.5,61.65,B,Raw,Open,4
F,67.5,1998-10-20,Susan Scofield,1962-08-12,USA,85,,85,63.2,B,Raw,Open,5
F,67.5,1998-10-20,Kathleen Rose Winter,1956-09-10,USA,82.5,,82.5,65.7,B,Raw,Open,6
F,67.5,1998-10-20,Rasha Housen Sheik,1975-04-10,Syria,80,,80,65.5,B,Raw,Open,7
F,75,1998-10-20,Emma Brown #1,1979-09-18,UK,127.5,,127.5,74.2,B,Raw,Open,1
F,75,1998-10-20,Ruifang Li,1971-05-20,China,110,,110,74.05,B,Raw,Open,2
F,75,1998-10-20,Tzu-Hui Lin,1981-11-05,Taiwan,102.5,,102.5,74.95,B,Raw,Open,3
F,75,1998-10-20,Kim Neuenkirchen,1967-11-10,Australia,60,,60,70.55,B,Raw,Open,4
F,75,1998-10-20,Netsuda Panna,1982-01-01,Thailand,45,,45,70.7,B,Raw,Open,5
F,82.5,1998-10-20,Ping Cao,1963-05-05,China,115,,115,82.5,B,Raw,Open,1
F,82.5,1998-10-20,Hend Abd El Aty,1969-09-08,Egypt,105,,105,75.9,B,Raw,Open,2
F,82.5,1998-10-20,Carine Burgy,1970-05-19,France,102.5,,102.5,81,B,Raw,Open,3
F,82.5,1998-10-20,Marina Dyakonova,1950-02-11,Russia,80,,80,79.8,B,Raw,Open,4
F,82.5,1998-10-20,Faizi Said S. Saleh,1960-01-01,Libya,37.5,,37.5,75.45,B,Raw,Open,5
F,82.5+,1998-10-20,Faten Hegazy,1964-11-08,Egypt,102.5,,102.5,90.4,B,Raw,Open,1
F,82.5+,1998-10-20,Julie Russell,1951-08-20,Australia,97.5,,97.5,88.1,B,Raw,Open,2
F,82.5+,1998-10-20,Jozsefne Puxler,1956-08-02,Hungary,95,,95,83.3,B,Raw,Open,3
F,82.5+,1998-10-20,Faith Igbinehi,1976-12-29,Nigeria,95,,95,92.4,B,Raw,Open,4
F,82.5+,1998-10-20,Naima H'Moda,1963-03-08,Tunisia,95,,95,98.15,B,Raw,Open,5
F,82.5+,1998-10-20,Sonia Chesher,1977-07-13,UK,72.5,,72.5,98.6,B,Raw,Open,6
F,82.5+,1998-10-20,Christina Gonzalez,1959-06-28,Mexico,65,,65,89.8,B,Raw,Open,7
F,82.5+,1998-10-20,Ghazala M. Ali,1973-06-08,Libya,55,,55,85.95,B,Raw,Open,8
F,82.5+,1998-10-20,Mary Stack,1974-04-03,USA,,,,94.5,B,Raw,Open,DQ
M,48,1998-10-21,Ruel Ishaku,1967-01-11,Nigeria,167.5,,167.5,46.9,B,Raw,Open,1
M,48,1998-10-21,Anthony Peddle,1971-05-11,UK,162.5,,162.5,48,B,Raw,Open,2
M,48,1998-10-21,Jung-Yong Kwak,1966-08-15,South Korea,160,,160,47.25,B,Raw,Open,3
M,48,1998-10-21,Thongsa Marasri,1975-01-30,Thailand,125,,125,45.55,B,Raw,Open,4
M,48,1998-10-21,Wayne Sharpe,1969-11-10,Australia,122.5,,122.5,47.35,B,Raw,Open,5
M,48,1998-10-21,Ibrahim Al Brahim,1977-04-28,Saudi Arabia,120,,120,46.3,B,Raw,Open,6
M,52,1998-10-21,Jalal Abu Mahfouz,1968-11-17,Jordan,120,,120,48.8,B,Raw,Open,14
M,48,1998-10-21,Thongdaeng Weiktaisong,1973-03-12,Thailand,115,,115,47.95,B,Raw,Open,7
M,48,1998-10-21,Luis Díaz,1968-03-28,Venezuela,112.5,,112.5,47.2,B,Raw,Open,8
M,48,1998-10-21,Chia-Tung Chang,1980-10-31,Taiwan,112.5,,112.5,47.6,B,Raw,Open,9
M,48,1998-10-21,Edward Gisov,1969-11-28,Kyrgyzstan,110,,110,47.9,B,Raw,Open,10
M,48,1998-10-21,Atajan Begniyazov,1980-01-07,Turkmenistan,107.5,,107.5,47.8,B,Raw,Open,11
M,48,1998-10-21,Gerhard Schwizer,1965-01-16,Switzerland,105,,105,42.3,B,Raw,Open,12
M,48,1998-10-21,Juan Carlos Garrido,1980-03-04,Chile,105,,105,46.5,B,Raw,Open,13
M,48,1998-10-21,Salim Rais,1964-11-12,Algeria,105,,105,47.3,B,Raw,Open,14
M,48,1998-10-21,Peixian Huang,1969-02-22,China,,,,47.7,B,Raw,Open,DQ
M,52,1998-10-21,Sang-Jin Yoon,1965-04-19,South Korea,170,,170,52,B,Raw,Open,1
M,52,1998-10-21,Jian Wang,1976-05-01,China,162.5,,162.5,51.2,B,Raw,Open,2
M,52,1998-10-21,Osama El Sernegavy,1969-01-01,Egypt,160,,160,49.2,B,Raw,Open,3
M,52,1998-10-21,Saeid Mokhtarian,1969-01-05,Iran,157.5,,157.5,51.95,B,Raw,Open,4
M,52,1998-10-21,Andrzej Gren,1958-04-06,Poland,145,,145,51,B,Raw,Open,5
M,52,1998-10-21,Chi-Cheng Chen,1967-12-14,Taiwan,145,,145,51.15,B,Raw,Open,6
M,52,1998-10-21,Amer Ghazi,1967-12-03,Syria,140,,140,50.65,B,Raw,Open,7
M,52,1998-10-21,Faisal Hammash,1977-05-06,Jordan,137.5,,137.5,51,B,Raw,Open,8
M,52,1998-10-21,Cheok Kon Fatt,1957-07-22,Malaysia,135,,135,49.9,B,Raw,Open,9
M,52,1998-10-21,Ziyad M. Hayawi,1967-04-03,Iraq,135,,135,51.1,B,Raw,Open,10
M,52,1998-10-21,Iouri Petrov,1970-10-19,Russia,132.5,,132.5,49.95,B,Raw,Open,11
M,52,1998-10-21,Per-Anders Denckers,1969-02-18,Sweden,132.5,,132.5,51.65,B,Raw,Open,12
M,52,1998-10-21,Roman Omurbekov,1970-10-25,Kyrgyzstan,125,,125,51.35,B,Raw,Open,13
M,52,1998-10-21,Yousup Sapbiyev,1969-09-22,Turkmenistan,120,,120,51.05,B,Raw,Open,15
M,52,1998-10-21,Mana Boonrak,1972-08-27,Thailand,120,,120,51.2,B,Raw,Open,16
M,52,1998-10-21,Benjamin Martinez,1972-08-06,Venezuela,107.5,,107.5,50.5,B,Raw,Open,17
M,52,1998-10-21,Alaa Soud A.S. Alsaleh,1967-09-11,Kuwait,105,,105,50.2,B,Raw,Open,18
M,52,1998-10-21,Abdullah Al-Harbi,1974-11-27,Saudi Arabia,90,,90,49.2,B,Raw,Open,19
M,52,1998-10-21,Yousef Haiji Hasan Alghawas,1957-01-01,Bahrain,90,,90,51.2,B,Raw,Open,20
M,52,1998-10-21,Ali Alhag,1977-09-19,UAE,72.5,,72.5,51.75,B,Raw,Open,21
M,52,1998-10-21,Sabah S.A. Al-Shakhtary,1970-01-15,Kuwait,,,,50.95,B,Raw,Open,DQ
M,56,1998-10-22,Ahmed Goumaa Moh. Ahmed,1973-03-10,Egypt,190,,190,54.6,B,Raw,Open,1
M,56,1998-10-22,Keum-Jong Jung,1965-02-11,South Korea,190,,190,55.65,B,Raw,Open,2
M,56,1998-10-22,Fereidon Karimipour,1972-07-12,Iran,180,,180,55.35,B,Raw,Open,3
M,56,1998-10-22,Stephen Davou,1966-02-17,Nigeria,170,,170,54.8,B,Raw,Open,4
M,56,1998-10-22,Richard Nicholson,1970-06-30,Australia,162.5,,162.5,55.5,B,Raw,Open,5
M,56,1998-10-22,Jonas Celin,1970-07-10,Sweden,160,,160,55.7,B,Raw,Open,6
M,56,1998-10-22,Mariusz Tomczyk,1971-05-10,Poland,155,,155,54.85,B,Raw,Open,7
M,56,1998-10-22,Krzysztof Owsiany,1965-07-25,Poland,155,,155,55.5,B,Raw,Open,8
M,56,1998-10-22,Yousef Al-Sheikh Younes,1963-09-09,Syria,155,,155,55.85,B,Raw,Open,9
M,56,1998-10-22,Ibrahim Al-Saadi,1966-04-14,Oman,145,,145,55.05,B,Raw,Open,10
M,56,1998-10-22,Gholam Rahiminia,1972-08-28,UAE,135,,135,54.2,B,Raw,Open,11
M,56,1998-10-22,Yung-Sung Wu,1965-02-04,Taiwan,130,,130,54.95,B,Raw,Open,12
M,56,1998-10-22,Yves Bedard,1969-11-29,Canada,130,,130,55.3,B,Raw,Open,13
M,56,1998-10-22,Andrew Caldwell,1969-09-05,UK,125,,125,52.8,B,Raw,Open,14
M,56,1998-10-22,Niazbek Tchaliev,1972-02-10,Kyrgyzstan,122.5,,122.5,55.25,B,Raw,Open,15
M,56,1998-10-22,Khalid Gul M. Al-Bulushi,1974-11-06,Oman,120,,120,55.6,B,Raw,Open,16
M,56,1998-10-22,Patrick Patrikeev,1964-04-12,Russia,117.5,,117.5,52.6,B,Raw,Open,17
M,56,1998-10-22,Suban Somjit,1968-01-03,Thailand,110,,110,54.25,B,Raw,Open,18
M,56,1998-10-22,Eddie Taylor,1965-08-25,USA,95,,95,55,B,Raw,Open,19
M,56,1998-10-22,Abdulsalem M. Gharsa,1967-09-01,Libya,,,,55.05,B,Raw,Open,DQ
M,60,1998-10-22,Metwaly Ibrahim Mathna,1974-11-30,Egypt,197.5,,197.5,57.7,B,Raw,Open,1
M,60,1998-10-22,Babak Mohammadi,1970-05-19,Iran,175,,175,59.75,B,Raw,Open,2
M,60,1998-10-22,Zhaohuo Yang,1964-08-18,China,172.5,,172.5,58.55,B,Raw,Open,3
M,60,1998-10-22,Djamel Meziani,1966-01-31,Algeria,160,,160,59.3,B,Raw,Open,4
M,60,1998-10-22,Tagy Parnian,1968-04-11,Netherlands,150,,150,59.3,B,Raw,Open,5
M,60,1998-10-22,Ivan Aldokimov,1974-09-12,Ukraine,127.5,,127.5,59.7,B,Raw,Open,6
M,60,1998-10-22,Alan Curry,1960-12-21,UK,125,,125,57.05,B,Raw,Open,7
M,60,1998-10-22,Esam Kh. Al-Bulushi,1977-02-07,Oman,120,,120,59.45,B,Raw,Open,8
M,60,1998-10-22,Steven Wright,1979-01-23,USA,112.5,,112.5,57.2,B,Raw,Open,9
M,60,1998-10-22,Anton Pouskov,1974-03-16,Bulgaria,110,,110,58.3,B,Raw,Open,10
M,60,1998-10-22,Thammanoon Khlaev Khlia,1974-03-22,Thailand,95,,95,56.9,B,Raw,Open,11
M,60,1998-10-22,Jabar Taresh Jabir,1977-01-01,Iraq,,,,58.95,B,Raw,Open,DQ
M,60,1998-10-22,Laifa Damoun,1961-05-15,Algeria,,,,58.7,B,Raw,Open,DQ
M,67.5,1998-10-23,Monday Emoghavwe,1963-04-02,Nigeria,207.5,,207.5,65.4,B,Raw,Open,1
M,67.5,1998-10-23,Allahbakhsh Akbari,1972-07-03,Iran,200,,200,65.25,B,Raw,Open,2
M,67.5,1998-10-23,Mansour Dimasi,1972-03-21,Iran,192.5,,192.5,66.45,B,Raw,Open,3
M,67.5,1998-10-23,Abraham Obaretin,1978-07-10,Nigeria,187.5,,187.5,63.5,B,Raw,Open,4
M,67.5,1998-10-23,Shaban Yehia Ibrahim,1975-09-14,Egypt,185,,185,60.8,B,Raw,Open,5
M,67.5,1998-10-23,Porfirio Francisco Arredondo Luna,1971-09-15,Mexico,180,,180,66.45,B,Raw,Open,6
M,67.5,1998-10-23,Intal Galeev,1956-01-02,Russia,177.5,,177.5,67.5,B,Raw,Open,7
M,67.5,1998-10-23,Russel Willey,1963-11-17,UK,175,,175,67.35,B,Raw,Open,8
M,67.5,1998-10-23,Mariappan Perumal,1958-02-25,Malaysia,172.5,,172.5,63.05,B,Raw,Open,9
M,67.5,1998-10-23,Bogdan Lis,1957-01-22,Poland,167.5,,167.5,66.45,B,Raw,Open,10
M,67.5,1998-10-23,Duk-Hwan Bong,1963-05-11,South Korea,165,,165,66.45,B,Raw,Open,11
M,67.5,1998-10-23,Zaidi Almi,1971-01-29,Algeria,165,,165,66.9,B,Raw,Open,12
M,67.5,1998-10-23,Philippe Herzog,1961-06-16,Switzerland,162.5,,162.5,64.6,B,Raw,Open,13
M,67.5,1998-10-23,Thaair Abbas Hussin,1976-01-30,Iraq,160,,160,65.25,B,Raw,Open,14
M,67.5,1998-10-23,Antonio Arranz Prados,1961-12-11,Spain,152.5,,152.5,65.4,B,Raw,Open,15
M,67.5,1998-10-23,Hussein Al-Hejji,1978-08-08,Saudi Arabia,150,,150,61.45,B,Raw,Open,16
M,67.5,1998-10-23,Yinka Adewusi,1977-01-01,Nigeria,150,,150,64,B,Raw,Open,17
M,67.5,1998-10-23,Mohammad Al Qahtani,1979-04-17,Saudi Arabia,142.5,,142.5,64.45,B,Raw,Open,18
M,67.5,1998-10-23,Nasser Al Rahbi,1970-03-08,Oman,140,,140,65.3,B,Raw,Open,19
M,67.5,1998-10-23,Haroun Karfaci,1976-11-21,Algeria,130,,130,66.55,B,Raw,Open,20
M,67.5,1998-10-23,Antonio Delgado,1953-04-15,Venezuela,122.5,,122.5,61.8,B,Raw,Open,21
M,67.5,1998-10-23,Iouri Marinenkov,1961-04-05,Moldova,122.5,,122.5,66.45,B,Raw,Open,22
M,67.5,1998-10-23,Mohamed Ali Alajmi,1974-02-14,Kuwait,115,,115,63.9,B,Raw,Open,23
M,67.5,1998-10-23,Dires Wongkhamkhrueang,1972-06-23,Thailand,105,,105,64.45,B,Raw,Open,24
M,67.5,1998-10-23,Somkid Srinoul,1965-02-09,Thailand,100,,100,66.75,B,Raw,Open,25
M,67.5,1998-10-23,Glen Luckham,1970-07-09,Canada,87.5,,87.5,65.85,B,Raw,Open,26
M,75,1998-10-23,Haidong Zhang,1969-10-11,China,220,,220,73.05,B,Raw,Open,1
M,75,1998-10-23,Ahmed Habib Elsayed,1974-04-06,Egypt,190,,190,73.7,B,Raw,Open,2
M,75,1998-10-23,Robert Studzizba,1973-12-30,Poland,175,,175,73,B,Raw,Open,3
M,75,1998-10-23,Kenny Doyle,1977-03-19,Canada,175,,175,74,B,Raw,Open,4
M,75,1998-10-23,Seppo Jounsuu,1958-06-11,Finland,175,,175,74.45,B,Raw,Open,5
M,75,1998-10-23,Carl Muylle,1961-04-30,Belgium,172.5,,172.5,74.8,B,Raw,Open,6
M,75,1998-10-23,Ali Mohamed Saif Al-Rashdi,1974-01-01,UAE,170,,170,70.3,B,Raw,Open,7
M,75,1998-10-23,Hamed Al-Jandal,1966-11-19,Saudi Arabia,167.5,,167.5,73.8,B,Raw,Open,8
M,75,1998-10-23,Gregory Jacobs,1976-08-26,France,167.5,,167.5,74.1,B,Raw,Open,9
M,75,1998-10-23,Abdelmu'ti Alawadat,1959-12-28,Jordan,165,,165,71.3,B,Raw,Open,10
M,75,1998-10-23,Miroslav Maliszewski,1960-01-31,Poland,165,,165,74.1,B,Raw,Open,11
M,75,1998-10-23,Aurel Berbec,1962-09-12,Romania,160,,160,70.6,B,Raw,Open,12
M,75,1998-10-23,Ahmed A. Shafeek,1973-01-01,Iraq,160,,160,72.5,B,Raw,Open,13
M,75,1998-10-23,Victor Valderama,1957-04-21,Chile,160,,160,73.75,B,Raw,Open,14
M,75,1998-10-23,Paul Hyde,1971-10-19,Australia,160,,160,74.2,B,Raw,Open,15
M,75,1998-10-23,Roger Ingdal,1965-12-23,Norway,157.5,,157.5,74.5,B,Raw,Open,16
M,75,1998-10-23,Fouad Tarverdiev,1979-05-30,Azerbaijan,155,,155,73.2,B,Raw,Open,17
M,75,1998-10-23,Chen-Lung Yang,1962-05-07,Taiwan,150,,150,73.15,B,Raw,Open,18
M,75,1998-10-23,Peter Linnett,1964-01-18,UK,145,,145,73,B,Raw,Open,19
M,75,1998-10-23,Shawkat Mugalimow,1947-09-04,Kyrgyzstan,145,,145,73.8,B,Raw,Open,20
M,75,1998-10-23,Mohammed Al Bulushi,1973-01-01,Oman,142.5,,142.5,72.85,B,Raw,Open,21
M,75,1998-10-23,Vasileios Giannoukas,1965-10-27,Greece,135,,135,72.55,B,Raw,Open,22
M,75,1998-10-23,Eesam I. Ali,1973-01-01,Libya,135,,135,74.05,B,Raw,Open,23
M,75,1998-10-23,Jasim Al-Mohammed,1971-03-30,Saudi Arabia,112.5,,112.5,68.75,B,Raw,Open,24
M,75,1998-10-23,Hossein Zeynal Siavoshani,1968-04-24,Iran,,,,72.05,B,Raw,Open,DQ
M,75,1998-10-23,Mohamed Nasir Abdulla,1968-02-01,UAE,,,,72.5,B,Raw,Open,DQ
M,75,1998-10-23,Geogios Sifakis,1974-01-08,Greece,,,,73.3,B,Raw,Open,DQ
M,82.5,1998-10-24,Saeid Bafandeh Sedaghati,1971-03-21,Iran,220,,220,78.3,B,Raw,Open,1
M,82.5,1998-10-24,Jong-Chul Park,1967-02-19,South Korea,217.5,,217.5,76.65,B,Raw,Open,2
M,82.5,1998-10-24,Farag Salah Abdel Monem,1973-09-22,Egypt,212.5,,212.5,81,B,Raw,Open,3
M,82.5,1998-10-24,Mostafa Fadlon Ali Hamed,1967-12-06,Egypt,210,,210,80.2,B,Raw,Open,4
M,82.5,1998-10-24,Bernd Vogel,1956-01-15,Germany,210,,210,81.45,B,Raw,Open,5
M,82.5,1998-10-24,Gioundouz Ismailov,1972-12-18,Azerbaijan,207.5,,207.5,78.65,B,Raw,Open,6
M,82.5,1998-10-24,Ryszard Fornalczyk,1955-01-20,Poland,202.5,,202.5,76.75,B,Raw,Open,7
M,82.5,1998-10-24,Jiahua Zhou,1957-12-28,China,190,,190,78.85,B,Raw,Open,8
M,82.5,1998-10-24,Steve Green,1961-08-14,Australia,177.5,,177.5,80.25,B,Raw,Open,9
M,82.5,1998-10-24,Mohammed Khamis Khalaf,1969-02-23,UAE,175,,175,81.1,B,Raw,Open,10
M,82.5,1998-10-24,Serguei Istomine,1961-07-25,Russia,175,,175,81.3,B,Raw,Open,11
M,82.5,1998-10-24,Brian Froggatt,1958-02-04,New Zealand,160,,160,80.2,B,Raw,Open,12
M,82.5,1998-10-24,John van Ruitenbeek,1955-12-11,Netherlands,160,,160,80.25,B,Raw,Open,13
M,82.5,1998-10-24,Lloyd Sumter,1960-07-20,Netherlands,160,,160,81.4,B,Raw,Open,14
M,82.5,1998-10-24,Mathaner Al-Mohanna,1973-07-31,Saudi Arabia,145,,145,78.25,B,Raw,Open,15
M,82.5,1998-10-24,Anatoli Kolodyuk,1963-09-21,Kazakhstan,145,,145,82.1,B,Raw,Open,16
M,82.5,1998-10-24,Mubarak A.J.M. Alajmi,1977-03-30,Kuwait,140,,140,78.95,B,Raw,Open,17
M,82.5,1998-10-24,Isaac Malalua,1967-05-06,Wallis and Futuna,140,,140,82.5,B,Raw,Open,18
M,82.5,1998-10-24,Vyacheslav Oseyan,1977-06-25,Armenia,130,,130,81.9,B,Raw,Open,19
M,82.5,1998-10-24,Surachai Sata,1977-06-24,Thailand,110,,110,79.75,B,Raw,Open,20
M,82.5,1998-10-24,Darryl Banks,1967-07-11,USA,,,,78.35,B,Raw,Open,DQ
M,82.5,1998-10-24,Hope Okorejior,1977-08-04,Nigeria,,,,79.5,B,Raw,Open,DQ
M,82.5,1998-10-24,Ahmad El Atwa,1970-02-17,Jordan,,,,81.95,B,Raw,Open,DQ
M,90,1998-10-24,Ryszard Tomaszewski,1951-01-20,Poland,212.5,,212.5,88.35,B,Raw,Open,1
M,90,1998-10-24,Ya Dong Wu,1974-09-11,China,202.5,,202.5,83.85,B,Raw,Open,2
M,90,1998-10-24,Bernd Basse,1969-12-06,Germany,200,,200,84.25,B,Raw,Open,3
M,90,1998-10-24,Frank Gyland,1968-03-13,Norway,197.5,,197.5,89.95,B,Raw,Open,4
M,90,1998-10-24,Bahman Golbar Nezhad,1968-06-04,Iran,190,,190,88.45,B,Raw,Open,5
M,90,1998-10-24,Janusz Sala,1968-05-06,Poland,182.5,,182.5,85.75,B,Raw,Open,6
M,90,1998-10-24,Andrij Barybin,1965-04-04,Ukraine,180,,180,86.1,B,Raw,Open,7
M,90,1998-10-24,Mukaila Baruwa,1962-02-10,Nigeria,180,,180,86.5,B,Raw,Open,8
M,90,1998-10-24,Mekhman Ramazanov,1979-10-01,Azerbaijan,175,,175,88.15,B,Raw,Open,9
M,90,1998-10-24,Zhaoling Guan,1972-10-24,China,165,,165,82.8,B,Raw,Open,10
M,90,1998-10-24,Domingo Garcia Perez,1962-10-17,Spain,152.5,,152.5,88.9,B,Raw,Open,11
M,90,1998-10-24,Vijay Bhalachandra Munishwar,1965-10-02,India,152.5,,152.5,89.55,B,Raw,Open,12
M,90,1998-10-24,Simon Chalk,1968-01-27,UK,150,,150,83.4,B,Raw,Open,13
M,90,1998-10-24,Abdalmonam Al-Najar,1972-04-24,Saudi Arabia,150,,150,84.95,B,Raw,Open,14
M,90,1998-10-24,José Chirinos,1966-08-06,Venezuela,150,,150,88.2,B,Raw,Open,15
M,90,1998-10-24,Ahmed Khayati,1956-12-12,Morocco,147.5,,147.5,88.3,B,Raw,Open,16
M,90,1998-10-24,Randy Mitchell,1970-09-05,USA,132.5,,132.5,83.7,B,Raw,Open,17
M,90,1998-10-24,Alexandr Kachelov,1948-09-24,Kyrgyzstan,110,,110,87.9,B,Raw,Open,18
M,90,1998-10-24,Opas Jaithon,1976-06-05,Thailand,105,,105,89.5,B,Raw,Open,19
M,100,1998-10-25,Sherif Bakr,1970-06-07,Egypt,215,,215,97.35,B,Raw,Open,1
M,100,1998-10-25,Amrolah Deghani,1963-04-04,Iran,212.5,,212.5,96.8,B,Raw,Open,2
M,100,1998-10-25,Zhiqiang Luo,1968-03-24,China,212.5,,212.5,99.05,B,Raw,Open,3
M,100,1998-10-25,Edmond Haddad,1965-07-31,France,190,,190,97.6,B,Raw,Open,4
M,100,1998-10-25,Salman Ahmad,1976-05-13,Kuwait,190,,190,97.7,B,Raw,Open,5
M,100,1998-10-25,Shaun Cavuoto,1971-03-09,Australia,187.5,,187.5,97.5,B,Raw,Open,6
M,100,1998-10-25,Tahvo Jauhojärvi,1961-12-08,Finland,185,,185,92,B,Raw,Open,7
M,100,1998-10-25,Darren Gardiner,1969-10-19,Australia,182.5,,182.5,97.2,B,Raw,Open,8
M,100,1998-10-25,Cesar Neira,1983-03-31,Venezuela,182.5,,182.5,97.85,B,Raw,Open,9
M,100,1998-10-25,Sergiy Lukyanov,1960-06-26,Ukraine,180,,180,98.4,B,Raw,Open,10
M,100,1998-10-25,Stephen Winning,1962-09-18,UK,177.5,,177.5,95.55,B,Raw,Open,11
M,100,1998-10-25,Omran A. Rhaima,1957-01-01,Iraq,170,,170,92.75,B,Raw,Open,12
M,100,1998-10-25,Martin Burley,1961-07-04,Australia,167.5,,167.5,99.15,B,Raw,Open,13
M,100,1998-10-25,Khalid Garda,1970-05-01,Morocco,150,,150,90.9,B,Raw,Open,14
M,100,1998-10-25,Nirut Saneebutr,1969-08-05,Thailand,150,,150,98.9,B,Raw,Open,15
M,100,1998-10-25,Hamad Moh. Saleh,1949-09-29,Libya,140,,140,97.45,B,Raw,Open,16
M,100,1998-10-25,Nayamathulla Khan,1974-06-15,India,,,,96.55,B,Raw,Open,DQ
M,100+,1998-10-25,Nicholas Slater,1969-02-24,UK,235,,235,103,B,Raw,Open,1
M,100+,1998-10-25,Leszek Hallman,1964-11-23,Poland,230,,230,134.1,B,Raw,Open,2
M,100+,1998-10-25,Andrew Wrzeszcz,1961-11-01,Canada,220,,220,132.45,B,Raw,Open,3
M,100+,1998-10-25,Theodor Strippel,1962-02-28,Germany,220,,220,133.1,B,Raw,Open,4
M,100+,1998-10-25,Vladimir Bouben,1955-09-22,Belarus,217.5,,217.5,120.5,B,Raw,Open,5
M,100+,1998-10-25,Ali Mahmoudi Kordkheili,1962-03-21,Iran,212.5,,212.5,141.85,B,Raw,Open,6
M,100+,1998-10-25,Kahi Puru,1963-10-18,Australia,205,,205,132.9,B,Raw,Open,7
M,100+,1998-10-25,Saad I. Elawi,1973-01-01,Iraq,200,,200,105.1,B,Raw,Open,8
M,100+,1998-10-25,Michael Farrell #1,1962-10-02,Australia,195,,195,123.5,B,Raw,Open,9
M,100+,1998-10-25,Hasan R. Ali,1955-07-01,Iraq,192.5,,192.5,115.65,B,Raw,Open,10
M,100+,1998-10-25,Cees Ootjers,1956-04-28,Netherlands,165,,165,136.9,B,Raw,Open,11
M,100+,1998-10-25,Husain Ahmed Madhi Ali,1974-04-03,Bahrain,130,,130,107.4,B,Raw,Open,12
M,100+,1998-10-25,Hamid Kh. Al-Mesbash,1975-02-18,Kuwait,122.5,,122.5,131.3,B,Raw,Open,13
M,100+,1998-10-25,Nader Ahmed Shaikh Saleh,1969-03-24,Bahrain,,,,137.65,B,Raw,Open,DQ
