Division,WeightClassKg,Place,Name,Team,BodyweightKg,Best3SquatKg,Best3BenchKg,Best3DeadliftKg,TotalKg,Equipment,Event,Sex,BirthDate
Boys,51.71,1,Alex Garcia #2,Cotulla,51.35,163.29,86.18,154.22,403.7,Single-ply,SBD,M,
Boys,51.71,2,Jonah Lopez,San Antonio Memorial,49.76,161.03,70.31,158.76,390.09,Single-ply,SBD,M,
Boys,51.71,3,Christopher Reyes,San Antonio Brooks Academy,50.53,106.59,68.04,129.27,303.91,Single-ply,SBD,M,
Boys,51.71,4,Anthony Garza,Natalia,50.58,120.2,63.5,117.93,301.64,Single-ply,SBD,M,
Boys,51.71,5,Derrick Valadez,Center Point,50.62,108.86,72.57,115.67,297.1,Single-ply,SBD,M,
Boys,51.71,6,Robert Longoria,Pearsall,51.44,86.18,52.16,127.01,265.35,Single-ply,SBD,M,
Boys,55.79,1,Joseph Salazar,Cotulla,54.52,172.37,104.33,185.97,462.66,Single-ply,SBD,M,
Boys,55.79,2,Marco Garza,Pearsall,55.57,149.69,95.25,183.7,428.64,Single-ply,SBD,M,
Boys,55.79,3,Carlos García,San Antonio Southwest Legacy,55.79,170.1,77.11,165.56,412.77,Single-ply,SBD,M,
Boys,55.79,4,Javier Aleman,Karnes City,55.2,154.22,88.45,154.22,396.89,Single-ply,SBD,M,
Boys,55.79,5,Richard Fernandez,San Antonio Holy Cross,54.93,136.08,88.45,142.88,367.41,Single-ply,SBD,M,
Boys,55.79,6,Thomas Dorman,Comal Canyon Lake,55.34,136.08,79.38,142.88,358.34,Single-ply,SBD,M,
Boys,55.79,7,Damian Guerra,Dilley,55.02,102.06,72.57,136.08,310.71,Single-ply,SBD,M,
Boys,55.79,8,Gus Puente,Devine,52.3,106.59,56.7,138.35,301.64,Single-ply,SBD,M,
Boys,55.79,9,Ian Solano,San Antonio Holy Cross,54.16,106.59,56.7,124.74,288.03,Single-ply,SBD,M,
Boys,59.87,1,Ethan Brown,Bandera,57.24,172.37,97.52,172.37,442.25,Single-ply,SBD,M,
Boys,59.87,2,Joe Fraga,Runge,59.42,161.03,83.91,183.7,428.64,Single-ply,SBD,M,
Boys,59.87,3,Donovan Hawkins,Natalia,57.2,179.17,72.57,174.63,426.38,Single-ply,SBD,M,
Boys,59.87,4,Christian Salazar,San Antonio Kennedy,58.11,172.37,79.38,170.1,421.84,Single-ply,SBD,M,
Boys,59.87,5,Jacob Garcia,Cotulla,58.47,158.76,97.52,163.29,419.57,Single-ply,SBD,M,
Boys,59.87,6,Ernesto Consuegra,Cotulla,59.74,158.76,81.65,172.37,412.77,Single-ply,SBD,M,
Boys,59.87,7,Damian Rodriguez,Dilley,58.92,129.27,74.84,165.56,369.68,Single-ply,SBD,M,
Boys,59.87,8,Marco Morales,Natalia,58.69,136.08,68.04,127.01,331.12,Single-ply,SBD,M,
Boys,59.87,9,Jorge Vicen,San Antonio Brooks Academy,56.29,104.33,58.97,122.47,285.76,Single-ply,SBD,M,
Boys,59.87,10,Paul Zamorano,San Antonio Kennedy,57.29,106.59,61.23,117.93,285.76,Single-ply,SBD,M,
Boys,59.87,11,Aric Querner,Jourdanton,57.56,102.06,56.7,117.93,276.69,Single-ply,SBD,M,
Boys,67.13,1,Ernesto Rangel,San Antonio Southwest Legacy,66.63,249.48,147.42,251.74,648.64,Single-ply,SBD,M,
Boys,67.13,2,Rafael Garza,Poteet,67.04,199.58,108.86,208.65,517.1,Single-ply,SBD,M,
Boys,67.13,3,Quen Syma,Lytle,65.36,201.85,106.59,195.04,503.49,Single-ply,SBD,M,
Boys,67.13,4,Alex Villarreal,San Antonio Memorial,66.45,195.04,104.33,199.58,498.95,Single-ply,SBD,M,
Boys,67.13,5,Sammy Bustamante,Center Point,66.18,192.78,108.86,192.78,494.42,Single-ply,SBD,M,
Boys,67.13,6,Brian Burns,Bandera,66.86,195.04,104.33,195.04,494.42,Single-ply,SBD,M,
Boys,67.13,7,Ethan Bierschwale,San Antonio East Central,65.68,201.85,99.79,190.51,492.15,Single-ply,SBD,M,
Boys,67.13,8,Harrison Gaenzel,Pleasanton,65.23,197.31,102.06,176.9,476.27,Single-ply,SBD,M,
Boys,67.13,9,Joseph Trevino,San Antonio Holy Cross,66.18,199.58,102.06,165.56,467.2,Single-ply,SBD,M,
Boys,67.13,10,Zachery Martinez,Devine,67.04,163.29,106.59,167.83,437.72,Single-ply,SBD,M,
Boys,67.13,11,Francisco Huerta,Yoakum,66.32,172.37,90.72,172.37,435.45,Single-ply,SBD,M,
Boys,67.13,12,Jose Gonzalez #10,Cotulla,61.33,142.88,88.45,174.63,405.97,Single-ply,SBD,M,
Boys,67.13,13,Alex De La Rosa,Dilley,66.95,149.69,97.52,158.76,405.97,Single-ply,SBD,M,
Boys,67.13,14,Gianni Rios,Natalia,67.13,149.69,90.72,145.15,385.55,Single-ply,SBD,M,
Boys,67.13,15,Luis Sambrano,Dilley,63.5,142.88,83.91,145.15,371.95,Single-ply,SBD,M,
Boys,67.13,16,Diego Torres,Dilley,67.09,124.74,92.99,142.88,360.61,Single-ply,SBD,M,
Boys,67.13,DQ,Rene Jimenez,San Antonio Memorial,60.37,149.69,90.72,,,Single-ply,SBD,M,
Boys,67.13,DQ,Jessie John Guel,Pleasanton,66.95,,,,,Single-ply,SBD,M,
Boys,67.13,DQ,Michael Aguilar,San Antonio East Central,66.32,208.65,,,,Single-ply,SBD,M,
Boys,74.84,1,Buddy Santos,Devine,74.57,244.94,124.74,244.94,614.62,Single-ply,SBD,M,
Boys,74.84,2,Elijah Banda,Natalia,73.62,215.46,124.74,208.65,548.85,Single-ply,SBD,M,
Boys,74.84,3,Diego Zapata,Natalia,72.76,235.87,97.52,213.19,546.58,Single-ply,SBD,M,
Boys,74.84,4,Carlos Gonzales,Dilley,74.12,192.78,102.06,210.92,505.76,Single-ply,SBD,M,
Boys,74.84,5,Eduardo Garcia-Ocampo,San Antonio East Central,71.67,195.04,111.13,195.04,501.22,Single-ply,SBD,M,
Boys,74.84,6,Jon Loya,Pleasanton,74.25,179.17,140.61,181.44,501.22,Single-ply,SBD,M,
Boys,74.84,7,Cecil Olivarri,Lytle,71.99,183.7,102.06,195.04,480.81,Single-ply,SBD,M,
Boys,74.84,8,Aj Ayala,Pleasanton,72.17,181.44,102.06,188.24,471.74,Single-ply,SBD,M,
Boys,74.84,9,Luke Fanno,Jourdanton,72.94,183.7,102.06,183.7,469.47,Single-ply,SBD,M,
Boys,74.84,10,Micheal Kroll,Karnes City,71.44,156.49,120.2,188.24,464.93,Single-ply,SBD,M,
Boys,74.84,11,Jacob Guajardo,Devine,72.76,181.44,104.33,158.76,444.52,Single-ply,SBD,M,
Boys,74.84,12,Matthew Stanton,Bandera,70.58,163.29,106.59,172.37,442.25,Single-ply,SBD,M,
Boys,74.84,13,Grant Wagoner,Devine,74.12,165.56,102.06,154.22,421.84,Single-ply,SBD,M,
Boys,74.84,14,Landon McDole,Natalia,74.3,145.15,99.79,154.22,399.16,Single-ply,SBD,M,
Boys,74.84,15,Roberto Hernandez,Natalia,67.54,129.27,68.04,149.69,347,Single-ply,SBD,M,
Boys,74.84,16,Donovan Navarro,San Antonio Kennedy,70.35,111.13,70.31,151.95,333.39,Single-ply,SBD,M,
Boys,74.84,17,Syris Emerson,San Antonio Jubilee,73.71,111.13,74.84,147.42,333.39,Single-ply,SBD,M,
Boys,74.84,18,Josh Hummel,San Antonio Jubilee,73.16,111.13,88.45,106.59,306.17,Single-ply,SBD,M,
Boys,74.84,19,Cooper Awbery,Jourdanton,74.62,102.06,74.84,124.74,301.64,Single-ply,SBD,M,
Boys,74.84,DQ,Daniel Wyrwich,San Antonio East Central,72.94,197.31,117.93,,,Single-ply,SBD,M,
Boys,74.84,DQ,Jason Vega,Lytle,72.26,183.7,,,,Single-ply,SBD,M,
Boys,74.84,DQ,Mike Flores,Cotulla,74.07,,,,,Single-ply,SBD,M,
Boys,74.84,DQ,Danny Guillen,Devine,68.58,,,,,Single-ply,SBD,M,
Boys,74.84,DQ,Lj Kroll,Karnes City,74.75,136.08,86.18,,,Single-ply,SBD,M,
Boys,82.1,1,Ryan Pena,San Antonio Southwest,79.88,217.72,147.42,229.06,594.21,Single-ply,SBD,M,
Boys,82.1,2,Ray Leal,Pearsall,81.56,233.6,115.67,235.87,585.13,Single-ply,SBD,M,
Boys,82.1,3,Eden Fuentes,Pearsall,79.11,229.06,129.27,219.99,578.33,Single-ply,SBD,M,
Boys,82.1,4,Rylan Wagner,Lytle,79.83,215.46,136.08,226.8,578.33,Single-ply,SBD,M,
Boys,82.1,5,Zakary Widenor,Bandera,80.74,217.72,113.4,231.33,562.45,Single-ply,SBD,M,
Boys,82.1,6,Tyler Felux,San Antonio Brooks Academy,79.11,204.12,138.35,217.72,560.19,Single-ply,SBD,M,
Boys,82.1,7,Jesse Sanchez,Cotulla,80.38,210.92,127.01,206.38,544.31,Single-ply,SBD,M,
Boys,82.1,8,Joseph Hernadez,Devine,81.65,204.12,97.52,235.87,537.51,Single-ply,SBD,M,
Boys,82.1,9,Tristan Real,San Antonio East Central,82.01,213.19,124.74,188.24,526.17,Single-ply,SBD,M,
Boys,82.1,10,Haiden Hass,Center Point,79.47,217.72,90.72,188.24,496.68,Single-ply,SBD,M,
Boys,82.1,11,Issac Rios,Natalia,80.97,170.1,102.06,206.38,478.54,Single-ply,SBD,M,
Boys,82.1,12,Martin Quintanila,San Antonio Brooks Academy,79.11,151.95,77.11,183.7,412.77,Single-ply,SBD,M,
Boys,82.1,13,Ralph Estala,Devine,79.29,156.49,86.18,170.1,412.77,Single-ply,SBD,M,
Boys,82.1,14,R Tavius Gonzales,San Antonio Southwest Legacy,78.83,154.22,95.25,154.22,403.7,Single-ply,SBD,M,
Boys,82.1,15,Omar Rosales,San Antonio Jubilee,78.61,149.69,74.84,170.1,394.63,Single-ply,SBD,M,
Boys,82.1,16,Joshua Sanchez,San Antonio Brooks Academy,79.97,102.06,63.5,140.61,306.17,Single-ply,SBD,M,
Boys,82.1,DQ,Alan Hernandez #8,San Antonio Memorial,78.29,165.56,,,,Single-ply,SBD,M,
Boys,82.1,DQ,Everett Penalver,San Antonio Kennedy,80.01,154.22,79.38,,,Single-ply,SBD,M,
Boys,82.1,DQ,Romelo Portillo,San Antonio Holy Cross,81.69,181.44,106.59,195.04,,Single-ply,SBD,M,
Boys,82.1,DQ,Chris Verdin,Jourdanton,76.79,208.65,95.25,208.65,,Single-ply,SBD,M,
Boys,89.81,1,Micah Young,San Antonio Southside,88.09,240.4,122.47,235.87,598.74,Single-ply,SBD,M,
Boys,89.81,2,Marshall Clark,San Antonio East Central,88.77,226.8,147.42,213.19,587.4,Single-ply,SBD,M,
Boys,89.81,3,Eric Ortega,Cotulla,87.68,195.04,140.61,204.12,539.77,Single-ply,SBD,M,
Boys,89.81,4,Mauricio Pecina,Yoakum,88.13,206.38,108.86,188.24,503.49,Single-ply,SBD,M,
Boys,89.81,5,Abel Bustamante,Center Point,87.63,204.12,92.99,190.51,487.61,Single-ply,SBD,M,
Boys,89.81,6,Ethan Acevedo,Poteet,82.64,195.04,111.13,158.76,464.93,Single-ply,SBD,M,
Boys,89.81,7,Jared Sandoval,San Antonio Memorial,85.46,154.22,111.13,161.03,426.38,Single-ply,SBD,M,
Boys,89.81,8,Jaden Miller,Jourdanton,84.01,127.01,72.57,147.42,347,Single-ply,SBD,M,
Boys,89.81,DQ,Darren Thomas,Cotulla,85.41,,,,,Single-ply,SBD,M,
Boys,89.81,DQ,Salamon Vasquez,San Antonio Southwest Legacy,85.68,197.31,124.74,,,Single-ply,SBD,M,
Boys,89.81,DQ,Vicente Correa,Dilley,85.05,174.63,,,,Single-ply,SBD,M,
Boys,89.81,DQ,Aaron Ramirez,Dilley,88.36,219.99,124.74,,,Single-ply,SBD,M,
Boys,99.79,1,Xzavier Morales,San Antonio Southwest Legacy,96.93,267.62,149.69,231.33,648.64,Single-ply,SBD,M,
Boys,99.79,2,Tristan Medrano,Del Rio,99.7,244.94,176.9,219.99,641.83,Single-ply,SBD,M,
Boys,99.79,3,Sebastian Segura,Karnes City,96.75,272.16,133.81,215.46,621.42,Single-ply,SBD,M,
Boys,99.79,4,Nathaniel Trinidad,San Antonio Holy Cross,97.39,235.87,131.54,217.72,585.13,Single-ply,SBD,M,
Boys,99.79,5,Eli Gonzalez,Cotulla,97.61,238.14,149.69,190.51,578.33,Single-ply,SBD,M,
Boys,99.79,6,Jeremiah Gomez,Natalia,91.22,217.72,127.01,229.06,573.79,Single-ply,SBD,M,
Boys,99.79,7,Steven Nava,Karnes City,98.34,219.99,136.08,213.19,569.26,Single-ply,SBD,M,
Boys,99.79,8,Aaron Rivera,Devine,99.65,208.65,142.88,201.85,553.38,Single-ply,SBD,M,
Boys,99.79,9,Jake Laque,Center Point,96.12,238.14,113.4,192.78,544.31,Single-ply,SBD,M,
Boys,99.79,10,Fabian Alvarez,San Antonio Southwest Legacy,93.44,201.85,115.67,222.26,539.77,Single-ply,SBD,M,
Boys,99.79,11,Miguel Buenrostro,Yoakum,92.71,201.85,92.99,210.92,505.76,Single-ply,SBD,M,
Boys,99.79,12,Aharon de los Santos,Yoakum,95.62,206.38,108.86,181.44,496.68,Single-ply,SBD,M,
Boys,99.79,13,Francisco Osoria,San Antonio Memorial,90.85,179.17,108.86,176.9,464.93,Single-ply,SBD,M,
Boys,99.79,14,Jonathon Rodriguez,San Antonio Kennedy,97.43,142.88,74.84,181.44,399.16,Single-ply,SBD,M,
Boys,99.79,15,Aries Mata,Jourdanton,98.16,113.4,97.52,136.08,347,Single-ply,SBD,M,
Boys,109.77,1,Abraham Rosas,Del Rio,106.37,263.08,136.08,263.08,662.24,Single-ply,SBD,M,
Boys,109.77,2,Gustavo Gomez,Natalia,100.74,272.16,142.88,206.38,621.42,Single-ply,SBD,M,
Boys,109.77,3,Dustin Soto,Natalia,106.41,260.82,113.4,247.21,621.42,Single-ply,SBD,M,
Boys,109.77,4,Isaiah Sanchez,Natalia,104.28,254.01,115.67,240.4,610.08,Single-ply,SBD,M,
Boys,109.77,5,Gabriel Gutierrez,Pearsall,108.32,263.08,120.2,226.8,610.08,Single-ply,SBD,M,
Boys,109.77,6,Andrew Velasquez,Cotulla,106.37,219.99,174.63,206.38,601.01,Single-ply,SBD,M,
Boys,109.77,7,Rene De Hoyos,San Antonio Southwest Legacy,108.45,263.08,136.08,195.04,594.21,Single-ply,SBD,M,
Boys,109.77,8,Michael Arteaga,San Antonio Southwest Legacy,108.86,226.8,167.83,190.51,585.13,Single-ply,SBD,M,
Boys,109.77,9,Kevin Ceineceros,Center Point,105.69,240.4,108.86,204.12,553.38,Single-ply,SBD,M,
Boys,109.77,10,Dj Nunez,Karnes City,105.46,199.58,129.27,195.04,523.9,Single-ply,SBD,M,
Boys,109.77,11,Reymundo Arellano,San Antonio Memorial,108.64,181.44,111.13,167.83,460.4,Single-ply,SBD,M,
Boys,109.77,12,Mathew Mariscal,Yoakum,103.96,183.7,86.18,165.56,435.45,Single-ply,SBD,M,
Boys,109.77,13,Rudy Rodiguez,Devine,109.72,163.29,88.45,172.37,424.11,Single-ply,SBD,M,
Boys,109.77,DQ,Jace Gonzales,Karnes City,108.23,276.69,145.15,,,Single-ply,SBD,M,
Boys,109.77,DQ,Joshua Pereida,San Antonio Southwest Legacy,108.05,215.46,,,,Single-ply,SBD,M,
Boys,124.74,1,Colton Perkins,Bandera,112.08,249.48,151.95,226.8,628.23,Single-ply,SBD,M,
Boys,124.74,2,Isiah Ulibarri,San Antonio Southwest Legacy,124.28,263.08,136.08,222.26,621.42,Single-ply,SBD,M,
Boys,124.74,3,Kollin Meeks,Pearsall,113.94,272.16,142.88,204.12,619.15,Single-ply,SBD,M,
Boys,124.74,4,Diego Hernandez,Natalia,112.58,242.67,129.27,233.6,605.55,Single-ply,SBD,M,
Boys,124.74,5,Gabe Heimer,San Antonio Brooks Academy,122.11,226.8,165.56,204.12,596.47,Single-ply,SBD,M,
Boys,124.74,6,Michael Cazares,Jourdanton,119.39,226.8,117.93,219.99,564.72,Single-ply,SBD,M,
Boys,124.74,7,Jayden Miller #2,Poteet,116.89,226.8,133.81,192.78,553.38,Single-ply,SBD,M,
Boys,124.74,8,Aubrey Cummings,Natalia,122.24,204.12,149.69,170.1,523.9,Single-ply,SBD,M,
Boys,124.74,9,Joel Hernandez #2,Devine,115.94,172.37,115.67,208.65,496.68,Single-ply,SBD,M,
Boys,124.74,10,Nicolas Rodriguez,San Antonio Kennedy,118.52,170.1,113.4,174.63,458.13,Single-ply,SBD,M,
Boys,124.74,11,Jacob Delaney,Devine,121.56,170.1,117.93,154.22,442.25,Single-ply,SBD,M,
Boys,124.74,12,Marcus Tristan,Karnes City,110.72,156.49,102.06,172.37,430.91,Single-ply,SBD,M,
Boys,124.74,13,Brandon Laureano,San Antonio Brooks Academy,117.21,127.01,65.77,181.44,374.21,Single-ply,SBD,M,
Boys,124.74,DQ,Nathan Palacio,San Antonio Memorial,116.07,290.3,,,,Single-ply,SBD,M,
Boys,124.74+,1,Jesus Borroel,San Antonio Memorial,142.16,290.3,140.61,260.82,691.73,Single-ply,SBD,M,
Boys,124.74+,2,Seth Ritchey,Poteet,139.03,249.48,174.63,249.48,673.58,Single-ply,SBD,M,
Boys,124.74+,3,Victor Evans,Austin Navarro Early College,132.36,272.16,163.29,224.53,659.98,Single-ply,SBD,M,
Boys,124.74+,4,Balmore Palacios,Austin Navarro Early College,131.13,254.01,147.42,215.46,616.89,Single-ply,SBD,M,
Boys,124.74+,5,Diego Anguiano,Pleasanton,137.53,267.62,140.61,208.65,616.89,Single-ply,SBD,M,
Boys,124.74+,6,Bode Walters,Marion,137.94,229.06,154.22,201.85,585.13,Single-ply,SBD,M,
Boys,124.74+,7,Marcos Coronado,San Antonio Holy Cross,175.49,226.8,106.59,219.99,553.38,Single-ply,SBD,M,
Boys,124.74+,8,Manual Belmarez,San Antonio Memorial,125.06,226.8,127.01,167.83,521.63,Single-ply,SBD,M,
Boys,124.74+,9,David Casias,San Antonio Brooks Academy,171.41,172.37,86.18,185.97,444.52,Single-ply,SBD,M,
Boys,124.74+,10,Alex Alvarez #2,Dilley,136.03,61.23,38.56,68.04,167.83,Single-ply,SBD,M,
