Name,Sex,Event,Equipment,Division,BodyweightKg,WeightClassKg,Squat1Kg,Squat2Kg,Squat3Kg,Best3SquatKg,Bench1Kg,Bench2Kg,Bench3Kg,Best3BenchKg,Deadlift1Kg,Deadlift2Kg,Deadlift3Kg,Best3DeadliftKg,TotalKg,Place,BirthDate,State
Charlotte Newbould,F,SBD,Raw,F-C-Open,78.55,84,125,130,135,135,60,67.5,70,70,137.5,145,150,150,355,2,,YNE
Christina Judge,F,SBD,Raw,F-C-Open,88.05,84+,85,95,-105,95,42.5,47.5,-50,47.5,130,-140,-140,130,272.5,5,,YNE
Joanne Wainwright,F,SBD,Raw,F-C-Open,112.75,84+,-125,125,-140,125,55,-62.5,-62.5,55,170,180,-190,180,360,3,,YNE
Kesia Tony,F,SBD,Raw,F-C-Open,93.5,84+,145,155,162.5,162.5,72.5,75,77.5,77.5,185,-195,-195,185,425,1,,YNE
Laura Loft,F,SBD,Raw,F-C-Open,81.5,84,155,160,-163,160,73,-77.5,-77.5,73,167.5,175,180,180,413,1,,YNE
Mariemy Montero,F,SBD,Raw,F-C-Open,106.25,84+,130,-140,-140,130,87.5,95,-100,95,130,140,-145,140,365,2,,YNE
Robyn Turnbull,F,SBD,Raw,F-C-Open,101.05,84+,120,-127.5,127.5,127.5,55,-60,60,60,135,145,-150,145,332.5,4,,YNE
Sarah Corbett,F,SBD,Raw,F-C-Open,75.85,84,100,110,120,120,57.5,62.5,-67.5,62.5,140,150,165,165,347.5,3,,YNE
Adam Haydon,M,SBD,Raw,M-C-Open,91,93,175,185,195,195,-110,115,120,120,215,225,235,235,550,7,,YNE
Alex Blow,M,SBD,Raw,M-C-Open,103.8,105,157.5,-170,170,170,95,100,-110,100,195,205,210,210,480,8,,YNE
Andrew Flounders,M,SBD,Raw,M-C-Open,91.5,93,185,195,200,200,135,142.5,-145,142.5,200,210,220,220,562.5,4,,YNE
Ashley Parkinson,M,SBD,Raw,M-C-Open,102.6,105,175,190,200,200,110,120,-130,120,220,240,250,250,570,6,,YNE
Ben Thornes,M,SBD,Raw,M-C-Open,97.55,105,182.5,192.5,-200,192.5,115,122.5,-127.5,122.5,217.5,227.5,-240,227.5,542.5,7,,YNE
Brad Redford,M,SBD,Raw,M-C-Open,109.1,120,160,170,177.5,177.5,110,117.5,122.5,122.5,212.5,225,235,235,535,5,,YNE
Brady Crooks,M,SBD,Raw,M-C-Open,91.6,93,192.5,202.5,212.5,212.5,122.5,-127.5,127.5,127.5,215,230,240,240,580,3,,YNE
Cameron Lawson,M,SBD,Raw,M-C-Open,91.5,93,190,200,-207.5,200,120,130,-132.5,130,205,217.5,225,225,555,5,,YNE
Chris Bull,M,SBD,Raw,M-C-Open,92.8,93,135,147.5,157.5,157.5,107.5,115,117.5,117.5,165,182.5,-190,182.5,457.5,16,,YNE
Chris Butler #1,M,SBD,Raw,M-C-Open,104.6,105,150,160,170,170,100,110,-115,110,160,170,180,180,460,9,,YNE
Chris Kirbitson,M,SBD,Raw,M-C-Open,94.8,105,130,135,140,140,95,102.5,110,110,180,190,200,200,450,10,,YNE
Christopher Baker,M,SBD,Raw,M-C-Open,92.95,93,160,-180,180,180,110,-120,-120,110,230,-250,,230,520,10,,YNE
Elis Bucher,M,SBD,Raw,M-C-Open,91.8,93,165,-175,182.5,182.5,105,112.5,-117.5,112.5,190,202.5,205,205,500,12,,YNE
Ethan Jones,M,SBD,Raw,M-C-Open,90.75,93,150,160,165,165,100,110,-115,110,190,200,207.5,207.5,482.5,14,,YNE
Frankie Faulkner,M,SBD,Raw,M-C-Open,117.3,120,195,-205,-205,195,-142.5,142.5,-147.5,142.5,195,205,215,215,552.5,4,,YNE
Jake Simpson #1,M,SBD,Raw,M-C-Open,93.2,105,-210,,,,150,,,150,-260,,,,,DQ,,YNE
Jake Wharton,M,SBD,Raw,M-C-Open,92.3,93,200,210,217.5,217.5,112.5,117.5,-125,117.5,227.5,245,247.5,247.5,582.5,2,,YNE
Jordan Eastwood,M,SBD,Raw,M-C-Open,92.9,93,-200,200,-220,200,157.5,-165,-165,157.5,-75,,,,,DQ,,YNE
Liam Thorpe,M,SBD,Raw,M-C-Open,90.6,93,187.5,200,210,210,110,120,125,125,190,210,217.5,217.5,552.5,6,,YNE
Luke Bosworth,M,SBD,Raw,M-C-Open,102.4,105,205,-220,-220,205,110,120,130,130,235,250,-260,250,585,5,,YNE
Luke Morton,M,SBD,Raw,M-C-Open,90.9,93,180,195,-205,195,115,122.5,127.5,127.5,180,200,215,215,537.5,8,,YNE
Matthew Dempsey,M,SBD,Raw,M-C-Open,104.25,105,230,240,250,250,140,155,-160,155,220,230,240,240,645,2,,YNE
Nick Humphries,M,SBD,Raw,M-C-Open,90.35,93,190,200,210,210,115,117.5,120,120,240,260,-270,260,590,1,,YNE
Rick Randall,M,SBD,Raw,M-C-Open,111.8,120,207.5,215,220,220,137.5,142.5,-147.5,142.5,250,-257.5,,250,612.5,3,,YNE
Rowan Ella,M,SBD,Raw,M-C-Open,87.05,93,190,205,212.5,212.5,105,110,115,115,185,195,205,205,532.5,9,,YNE
Rupert Vann-Alexander,M,SBD,Raw,M-C-Open,131.15,120+,180,200,210,210,90,110,-115,110,230,250,-260,250,570,1,,YNE
Samuel Laycock,M,SBD,Raw,M-C-Open,107.25,120,-225,230,-237.5,230,135,140,145,145,260,275,280,280,655,2,,YNE
Sean McPhillips,M,SBD,Raw,M-C-Open,102.2,105,210,217.5,-227.5,217.5,140,147.5,-152.5,147.5,250,260,272.5,272.5,637.5,3,,YNE
Stephen Flounders,M,SBD,Raw,M-C-Open,86.6,93,180,185,-190,185,110,-115,115,115,200,207.5,212.5,212.5,512.5,11,,YNE
Steve Martin,M,SBD,Single-ply,M-E-Open,104.95,105,-260,-270,280,280,152.5,157.5,-162.5,157.5,240,-257.5,-257.5,240,677.5,1,,YNE
Steven Cuthbert,M,SBD,Raw,M-C-Open,103.2,105,217.5,227.5,235,235,110,117.5,122.5,122.5,230,245,260,260,617.5,4,,YNE
Tom Fairweather,M,SBD,Raw,M-C-Open,91.35,93,150,162.5,170,170,105,112.5,-115,112.5,185,190,200,200,482.5,15,,YNE
Tom Slater,M,SBD,Raw,M-C-Open,114.7,120,220,230,240,240,147.5,157.5,-162.5,157.5,260,280,-285,280,677.5,1,,YNE
Trevor Warrington,M,SBD,Raw,M-C-Open,90.5,93,140,-145,150,150,130,-135,140,140,190,200,,200,490,13,,YNE
Zoltan Hesley,M,SBD,Raw,M-C-Open,88.7,93,105,115,120,120,65,70,75,75,120,125,130,130,325,17,,YNE
Chloe Dickinson,F,SBD,Raw,F-C-Open,45.9,47,57.5,65,-72.5,65,27.5,35,-40,35,67.5,77.5,-85,77.5,177.5,1,,YNE
Frances Matthewman,F,SBD,Raw,F-C-Open,49.3,52,-72.5,72.5,77.5,77.5,42.5,-47.5,47.5,47.5,102.5,112.5,-115,112.5,237.5,1,,YNE
Jess Hopton,F,SBD,Raw,F-C-Open,56.9,57,-110,110,-117.5,110,57.5,-62.5,-62.5,57.5,120,122.5,127.5,127.5,295,1,,YNE
Jessica Terry,F,SBD,Raw,F-C-Open,56.1,57,90,97.5,-102.5,97.5,47.5,52.5,-57.5,52.5,115,125,135,135,285,2,,YNE
Hannah Durrant,F,SBD,Raw,F-C-Open,55.6,57,75,80,85,85,-40,42.5,45,45,120,125,132.5,132.5,262.5,3,,YNE
Alexandra Justine Chapman,F,SBD,Raw,F-C-Open,56.15,57,90,95,-97.5,95,45,47.5,-50,47.5,100,107.5,-110,107.5,250,4,,YNE
Sarah Jordan,F,SBD,Raw,F-C-Open,55.75,57,70,80,90,90,25,30,35,35,90,100,110,110,235,5,,YNE
Debbie Gathercole,F,SBD,Raw,F-C-Open,59.7,63,95,105,-112.5,105,55,60,-67.5,60,120,140,150,150,315,1,,YNE
Lucy Dawson,F,SBD,Raw,F-C-Open,61.5,63,90,97.5,-102.5,97.5,55,57.5,-60,57.5,120,130,-135,130,285,2,,YNE
Alison Joy,F,SBD,Raw,F-C-Open,60.45,63,90,97.5,-102.5,97.5,50,55,57.5,57.5,102.5,112.5,117.5,117.5,272.5,3,,YNE
Christina Hutchinson,F,SBD,Raw,F-C-Open,59.75,63,60,67.5,72.5,72.5,40,45,47.5,47.5,90,102.5,110,110,230,4,,YNE
Ina Stokland,F,SBD,Raw,F-C-Open,62.25,63,55,60,65,65,37.5,42.5,-45,42.5,80,90,100,100,207.5,5,,YNE
Charlotte Walker,F,SBD,Raw,F-C-Open,62.15,63,55,62.5,-70,62.5,30,35,37.5,37.5,80,87.5,95,95,195,6,,YNE
Rachel Bradish,F,SBD,Raw,F-C-Open,69.75,72,135,145,-150,145,75,80,82.5,82.5,157.5,165,170.5,170.5,398,1,,YNE
Gemma Wright,F,SBD,Raw,F-C-Open,71.55,72,127.5,135,-145,135,62.5,67.5,-70,67.5,152.5,160,-172.5,160,362.5,2,,YNE
Louise Marsh,F,SBD,Raw,F-C-Open,72,72,145,150,-153,150,60,-62.5,-62.5,60,140,145,150,150,360,3,,YNE
Heather Murray,F,SBD,Raw,F-C-Open,71.75,72,110,117.5,122.5,122.5,65,70,-75,70,140,152.5,-165,152.5,345,4,,YNE
Natasha Hartke,F,SBD,Raw,F-C-Open,64.95,72,100,-107.5,107.5,107.5,60,-65,65,65,125,132.5,140,140,312.5,5,,YNE
Samantha Cadman,F,SBD,Raw,F-C-Open,70,72,90,95,100,100,57.5,-62.5,62.5,62.5,120,130,135,135,297.5,6,,YNE
Niamh Howarth,F,SBD,Raw,F-C-Open,71.2,72,105,110,115,115,55,60,-62.5,60,112.5,117.5,-122.5,117.5,292.5,7,,YNE
Ellie Norris,F,SBD,Raw,F-C-Open,70.75,72,90,97.5,-100,97.5,60,62.5,-65,62.5,105,115,-125,115,275,8,,YNE
Leila Thexton,F,SBD,Raw,F-C-Open,70.35,72,70,75,-77.5,75,37.5,40,-42.5,40,85,95,-100,95,210,9,,YNE
James Senior,M,SBD,Raw,M-C-Open,64.8,66,162.5,172.5,180,180,117.5,125.5,-130,125.5,167.5,177.5,185,185,490.5,1,,YNE
Harry Sugden,M,SBD,Raw,M-C-Open,65.41,66,145,150,-160,150,80,87.5,-90,87.5,180,190,200,200,437.5,2,2001-07-24,YNE
David Saunders,M,SBD,Raw,M-C-Open,72.81,74,165,175,182.5,182.5,95,100,-102.5,100,210,227.5,235,235,517.5,1,,YNE
Gareth Sellers,M,SBD,Raw,M-C-Open,73.2,74,-187.5,-192.5,195,195,120,125,130,130,172.5,180,187.5,187.5,512.5,2,,YNE
Corey Gosling,M,SBD,Raw,M-C-Open,72.8,74,165,180,-182.5,180,115,-120,120,120,175,185,187.5,187.5,487.5,3,,YNE
Areeb Rasaq,M,SBD,Raw,M-C-Open,73,74,160,167.5,-172.5,167.5,100,105,110,110,180,190,-200,190,467.5,4,,YNE
Ammen Arya,M,SBD,Raw,M-C-Open,73.6,74,155,162.5,170,170,90,-95,-95,90,195,-207.5,-215,195,455,5,,YNE
Adam Vayro,M,SBD,Raw,M-C-Open,74,74,145,-152.5,155,155,75,85,-90,85,170,185,195,195,435,6,,YNE
James Harman-Thomas,M,SBD,Raw,M-C-Open,66.8,74,130,140,147.5,147.5,92.5,-97.5,100,100,167.5,177.5,-187.5,177.5,425,7,,YNE
William McGivern,M,SBD,Raw,M-C-Open,71.8,74,90,100,110,110,55,65,70,70,140,150,160,160,340,8,,YNE
Thomas Hutchinson,M,SBD,Raw,M-C-Open,82.8,83,195,-207.5,207.5,207.5,122.5,127.5,132.5,132.5,235,250,-260,250,590,1,,YNE
Ben Biglin,M,SBD,Raw,M-C-Open,81.2,83,175,182.5,-187.5,182.5,107.5,112.5,-117.5,112.5,240,-242.5,,240,535,2,,YNE
Fergus Ella,M,SBD,Raw,M-C-Open,76.2,83,182.5,192.5,200,200,117.5,125,132.5,132.5,170,180,187.5,187.5,520,3,,YNE
Anthony White #1,M,SBD,Raw,M-C-Open,81.8,83,160,172.5,-180,172.5,105,110,115,115,197.5,210,217.5,217.5,505,4,,YNE
Daniel Jepsen,M,SBD,Raw,M-C-Open,82,83,165,172.5,180,180,105,110,115,115,190,200,210,210,505,5,,YNE
Daniel Hutchinson,M,SBD,Raw,M-C-Open,81,83,180,190,-195,190,100,-110,-110,100,195,-205,-205,195,485,6,,YNE
Matthew Sedgewick,M,SBD,Raw,M-C-Open,76,83,145,152.5,157.5,157.5,102.5,107.5,112.5,112.5,195,205,-215,205,475,7,,YNE
Nathan Quilliam,M,SBD,Raw,M-C-Open,78.6,83,135,145,155,155,95,100,107.5,107.5,180,195,210,210,472.5,8,,YNE
Oliver Riddle,M,SBD,Raw,M-C-Open,79.2,83,170,180,-190,180,87.5,92.5,97.5,97.5,170,180,190,190,467.5,9,,YNE
James Street,M,SBD,Raw,M-C-Open,75.4,83,145,155,-160,155,90,97.5,-105,97.5,180,190,200,200,452.5,10,,YNE
Sonny Stuffins,M,SBD,Raw,M-C-Open,80.8,83,105,115,120,120,75,80,82.5,82.5,140,150,157.5,157.5,360,11,,YNE
